EESchema Schematic File Version 4
EELAYER 30 0
EELAYER END
$Descr A3 16535 11693
encoding utf-8
Sheet 1 1
Title ""
Date ""
Rev ""
Comp ""
Comment1 ""
Comment2 ""
Comment3 ""
Comment4 ""
$EndDescr
$Comp
L Device:R R3
U 1 1 60816D0D
P 7050 3550
F 0 "R3" H 7120 3596 50  0000 L CNN
F 1 "100k" H 7120 3505 50  0000 L CNN
F 2 "Resistor_SMD:R_0603_1608Metric_Pad0.98x0.95mm_HandSolder" V 6980 3550 50  0001 C CNN
F 3 "~" H 7050 3550 50  0001 C CNN
	1    7050 3550
	1    0    0    -1  
$EndComp
$Comp
L Device:R R4
U 1 1 60817ADA
P 8350 3550
F 0 "R4" H 8420 3596 50  0000 L CNN
F 1 "100k" H 8420 3505 50  0000 L CNN
F 2 "Resistor_SMD:R_0603_1608Metric_Pad0.98x0.95mm_HandSolder" V 8280 3550 50  0001 C CNN
F 3 "~" H 8350 3550 50  0001 C CNN
	1    8350 3550
	1    0    0    -1  
$EndComp
Text GLabel 7000 3300 0    50   Input ~ 0
3V_REF
Wire Wire Line
	7000 3300 7050 3300
Wire Wire Line
	7050 3300 7050 3400
Wire Wire Line
	8350 3300 8350 3400
Connection ~ 7050 3300
Wire Wire Line
	8350 3800 8350 3700
$Comp
L power:GND #PWR05
U 1 1 60825191
P 5700 4250
F 0 "#PWR05" H 5700 4000 50  0001 C CNN
F 1 "GND" H 5705 4077 50  0000 C CNN
F 2 "" H 5700 4250 50  0001 C CNN
F 3 "" H 5700 4250 50  0001 C CNN
	1    5700 4250
	1    0    0    -1  
$EndComp
Wire Wire Line
	5700 4250 5700 4200
Wire Wire Line
	7050 3700 7050 3800
Wire Wire Line
	5700 3550 5700 3650
Text GLabel 5700 3550 1    50   Input ~ 0
3.3V
Wire Wire Line
	7650 3850 7650 3800
Wire Wire Line
	7650 3800 7050 3800
Connection ~ 7050 3800
Wire Wire Line
	7850 3850 7850 3800
Wire Wire Line
	7850 3800 8350 3800
Wire Wire Line
	7050 3300 8350 3300
Wire Wire Line
	7750 4450 7750 4550
Wire Wire Line
	7750 4550 7050 4550
$Comp
L Device:R_POT RV2
U 1 1 60838B7D
P 8350 4200
F 0 "RV2" H 8550 4100 50  0000 R CNN
F 1 "10k" H 8500 4000 50  0000 R CNN
F 2 "Potentiometer_SMD:Potentiometer_Bourns_3269P_Horizontal" H 8350 4200 50  0001 C CNN
F 3 "~" H 8350 4200 50  0001 C CNN
F 4 "3361P-1-102GLF" H 8350 4200 50  0001 C CNN "MPN"
	1    8350 4200
	1    0    0    -1  
$EndComp
Wire Wire Line
	8350 4050 8350 3800
Connection ~ 8350 3800
Wire Wire Line
	8350 4350 8350 4550
Wire Wire Line
	8350 4550 7750 4550
Connection ~ 7750 4550
Wire Wire Line
	8500 4200 8700 4200
Wire Wire Line
	8700 4000 8650 4000
Wire Wire Line
	8650 4000 8650 3850
Wire Wire Line
	8650 3850 9400 3850
Wire Wire Line
	9400 3850 9400 4100
Wire Wire Line
	9400 4100 9300 4100
Text Label 9750 4100 0    50   ~ 0
V_OUT_1
Wire Wire Line
	9400 4100 9750 4100
Connection ~ 9400 4100
Wire Notes Line
	5450 3050 10250 3050
Wire Notes Line
	10250 3050 10250 4800
Text Notes 5500 4750 0    50   ~ 0
PAN - excitation independant constatnt conductance ISFET driver
$Comp
L ISFET_Project_Lib:LMP7732 U3
U 1 1 608215B8
P 7750 4050
F 0 "U3" V 7797 4280 60  0000 L CNN
F 1 "LMP7732" V 7903 4280 60  0000 L CNN
F 2 "ISFET:LMP7732_VSSOP" H 7750 4340 60  0001 C CNN
F 3 "https://www.ti.com/lit/ds/symlink/lmp7732.pdf?ts=1619101157917&ref_url=https%253A%252F%252Fwww.ti.com%252Fproduct%252FLMP7732" H 5950 3200 60  0001 C CNN
F 4 "LMP7732MM/NOPB" H 7750 4050 50  0001 C CNN "MPN"
	1    7750 4050
	0    1    1    0   
$EndComp
$Comp
L ISFET_Project_Lib:LMP7732 U3
U 2 1 60822383
P 8900 4100
F 0 "U3" H 9000 3711 60  0000 C CNN
F 1 "LMP7732" H 9000 3817 60  0000 C CNN
F 2 "ISFET:LMP7732_VSSOP" H 8900 4390 60  0001 C CNN
F 3 "https://www.ti.com/lit/ds/symlink/lmp7732.pdf?ts=1619101157917&ref_url=https%253A%252F%252Fwww.ti.com%252Fproduct%252FLMP7732" H 7100 3250 60  0001 C CNN
F 4 "LMP7732MM/NOPB" H 8900 4100 50  0001 C CNN "MPN"
	2    8900 4100
	1    0    0    1   
$EndComp
$Comp
L ISFET_Project_Lib:LMP7732 U3
U 3 1 6082307E
P 5700 3950
F 0 "U3" V 5800 3850 60  0000 L CNN
F 1 "LMP7732" V 5900 3750 60  0000 L CNN
F 2 "ISFET:LMP7732_VSSOP" H 5700 4240 60  0001 C CNN
F 3 "https://www.ti.com/lit/ds/symlink/lmp7732.pdf?ts=1619101157917&ref_url=https%253A%252F%252Fwww.ti.com%252Fproduct%252FLMP7732" H 3900 3100 60  0001 C CNN
F 4 "LMP7732MM/NOPB" H 5700 3950 50  0001 C CNN "MPN"
	3    5700 3950
	1    0    0    -1  
$EndComp
Text GLabel 1400 950  1    50   Input ~ 0
3.3V
Wire Wire Line
	1400 950  1400 1000
$Comp
L power:GND #PWR03
U 1 1 60825E1D
P 1400 1650
F 0 "#PWR03" H 1400 1400 50  0001 C CNN
F 1 "GND" H 1405 1477 50  0000 C CNN
F 2 "" H 1400 1650 50  0001 C CNN
F 3 "" H 1400 1650 50  0001 C CNN
	1    1400 1650
	1    0    0    -1  
$EndComp
Wire Wire Line
	1400 1650 1400 1600
$Comp
L Device:R R1
U 1 1 608334B2
P 2100 800
F 0 "R1" V 1893 800 50  0000 C CNN
F 1 "10k" V 1984 800 50  0000 C CNN
F 2 "Resistor_SMD:R_0603_1608Metric_Pad0.98x0.95mm_HandSolder" V 2030 800 50  0001 C CNN
F 3 "~" H 2100 800 50  0001 C CNN
	1    2100 800 
	0    1    1    0   
$EndComp
$Comp
L Device:R R2
U 1 1 60833B9B
P 2650 800
F 0 "R2" V 2443 800 50  0000 C CNN
F 1 "10k" V 2534 800 50  0000 C CNN
F 2 "Resistor_SMD:R_0603_1608Metric_Pad0.98x0.95mm_HandSolder" V 2580 800 50  0001 C CNN
F 3 "~" H 2650 800 50  0001 C CNN
	1    2650 800 
	0    1    1    0   
$EndComp
Wire Wire Line
	2350 1050 2300 1050
Wire Wire Line
	2300 1050 2300 800 
$Comp
L Device:R R7
U 1 1 6083A498
P 2100 1650
F 0 "R7" V 1893 1650 50  0000 C CNN
F 1 "10k" V 1984 1650 50  0000 C CNN
F 2 "Resistor_SMD:R_0603_1608Metric_Pad0.98x0.95mm_HandSolder" V 2030 1650 50  0001 C CNN
F 3 "~" H 2100 1650 50  0001 C CNN
	1    2100 1650
	0    1    1    0   
$EndComp
$Comp
L Device:R R8
U 1 1 6083A49E
P 2650 1650
F 0 "R8" V 2443 1650 50  0000 C CNN
F 1 "10k" V 2534 1650 50  0000 C CNN
F 2 "Resistor_SMD:R_0603_1608Metric_Pad0.98x0.95mm_HandSolder" V 2580 1650 50  0001 C CNN
F 3 "~" H 2650 1650 50  0001 C CNN
	1    2650 1650
	0    1    1    0   
$EndComp
Wire Wire Line
	2350 1250 2300 1250
Wire Wire Line
	2300 1250 2300 1650
Wire Wire Line
	2300 1650 2250 1650
Wire Wire Line
	2300 800  2250 800 
Wire Wire Line
	2500 800  2300 800 
Connection ~ 2300 800 
Wire Wire Line
	2500 1650 2300 1650
Connection ~ 2300 1650
$Comp
L power:GND #PWR04
U 1 1 60841C20
P 1900 1700
F 0 "#PWR04" H 1900 1450 50  0001 C CNN
F 1 "GND" H 1905 1527 50  0000 C CNN
F 2 "" H 1900 1700 50  0001 C CNN
F 3 "" H 1900 1700 50  0001 C CNN
	1    1900 1700
	1    0    0    -1  
$EndComp
Wire Wire Line
	1900 1700 1900 1650
Wire Wire Line
	1900 1650 1950 1650
Text GLabel 1900 800  0    50   Input ~ 0
3V_REF
Wire Wire Line
	1950 800  1900 800 
Wire Wire Line
	2950 1150 3000 1150
Wire Wire Line
	3000 1150 3000 800 
Wire Wire Line
	3000 800  2800 800 
Text Label 3200 1150 2    50   ~ 0
V_n1
Connection ~ 3000 1150
Text Label 3200 1650 2    50   ~ 0
V_ISFET_S
Wire Wire Line
	2800 1650 3200 1650
Text Notes 1250 2050 0    50   ~ 0
Vref= Vs - Vn1 
Text Notes 1250 2150 0    50   ~ 0
Floating reference voltage
$Comp
L ISFET_Project_Lib:LMP7732 U1
U 2 1 608649DD
P 4800 1900
F 0 "U1" V 4350 1800 60  0000 L CNN
F 1 "LMP7732" V 4450 1700 60  0000 L CNN
F 2 "ISFET:LMP7732_VSSOP" H 4800 2190 60  0001 C CNN
F 3 "https://www.ti.com/lit/ds/symlink/lmp7732.pdf?ts=1619101157917&ref_url=https%253A%252F%252Fwww.ti.com%252Fproduct%252FLMP7732" H 3000 1050 60  0001 C CNN
F 4 "LMP7732MM/NOPB" H 4800 1900 50  0001 C CNN "MPN"
	2    4800 1900
	0    1    1    0   
$EndComp
$Comp
L Device:R R5
U 1 1 60867CBB
P 3800 1400
F 0 "R5" H 3870 1446 50  0000 L CNN
F 1 "100k" H 3870 1355 50  0000 L CNN
F 2 "Resistor_SMD:R_0603_1608Metric_Pad0.98x0.95mm_HandSolder" V 3730 1400 50  0001 C CNN
F 3 "~" H 3800 1400 50  0001 C CNN
	1    3800 1400
	1    0    0    -1  
$EndComp
$Comp
L Device:R R6
U 1 1 60867CC1
P 5400 1400
F 0 "R6" H 5470 1446 50  0000 L CNN
F 1 "100k" H 5470 1355 50  0000 L CNN
F 2 "Resistor_SMD:R_0603_1608Metric_Pad0.98x0.95mm_HandSolder" V 5330 1400 50  0001 C CNN
F 3 "~" H 5400 1400 50  0001 C CNN
	1    5400 1400
	1    0    0    -1  
$EndComp
Wire Wire Line
	3800 1150 3800 1250
Wire Wire Line
	5400 1150 5400 1250
Wire Wire Line
	5400 1650 5400 1550
Wire Wire Line
	4700 1700 4700 1650
Wire Wire Line
	4900 1700 4900 1650
Wire Wire Line
	4900 1650 5400 1650
Wire Wire Line
	4800 2300 4800 2400
Wire Wire Line
	5400 2400 4800 2400
Connection ~ 4800 2400
$Comp
L Device:R R12
U 1 1 60875078
P 5400 2000
F 0 "R12" H 5470 2046 50  0000 L CNN
F 1 "11k" H 5470 1955 50  0000 L CNN
F 2 "Resistor_SMD:R_0603_1608Metric_Pad0.98x0.95mm_HandSolder" V 5330 2000 50  0001 C CNN
F 3 "~" H 5400 2000 50  0001 C CNN
	1    5400 2000
	1    0    0    -1  
$EndComp
Wire Wire Line
	5400 1850 5400 1650
Connection ~ 5400 1650
Wire Wire Line
	5400 2150 5400 2400
$Comp
L Device:C C1
U 1 1 6087B591
P 5700 1850
F 0 "C1" H 5815 1896 50  0000 L CNN
F 1 "C" H 5815 1805 50  0000 L CNN
F 2 "Capacitor_SMD:C_0603_1608Metric_Pad1.08x0.95mm_HandSolder" H 5738 1700 50  0001 C CNN
F 3 "~" H 5700 1850 50  0001 C CNN
	1    5700 1850
	1    0    0    -1  
$EndComp
$Comp
L power:GND #PWR06
U 1 1 6087E3DE
P 5700 2050
F 0 "#PWR06" H 5700 1800 50  0001 C CNN
F 1 "GND" H 5705 1877 50  0000 C CNN
F 2 "" H 5700 2050 50  0001 C CNN
F 3 "" H 5700 2050 50  0001 C CNN
	1    5700 2050
	1    0    0    -1  
$EndComp
Wire Wire Line
	5700 2050 5700 2000
Wire Wire Line
	5700 1700 5700 1650
Wire Wire Line
	5700 1650 5400 1650
Wire Wire Line
	3800 1550 3800 1650
$Comp
L Device:R R9
U 1 1 60889C1B
P 4100 1650
F 0 "R9" V 4010 1580 50  0000 L CNN
F 1 "R" V 3940 1570 50  0000 L CNN
F 2 "Resistor_SMD:R_0603_1608Metric_Pad0.98x0.95mm_HandSolder" V 4030 1650 50  0001 C CNN
F 3 "~" H 4100 1650 50  0001 C CNN
	1    4100 1650
	0    -1   -1   0   
$EndComp
$Comp
L Device:C C2
U 1 1 6088FC78
P 4350 2000
F 0 "C2" H 4465 2046 50  0000 L CNN
F 1 "C" H 4465 1955 50  0000 L CNN
F 2 "Capacitor_SMD:C_0603_1608Metric_Pad1.08x0.95mm_HandSolder" H 4388 1850 50  0001 C CNN
F 3 "~" H 4350 2000 50  0001 C CNN
	1    4350 2000
	1    0    0    -1  
$EndComp
Wire Wire Line
	4250 1650 4350 1650
Wire Wire Line
	3950 1650 3800 1650
Connection ~ 4350 1650
Wire Wire Line
	4350 1650 4700 1650
Wire Wire Line
	3800 2400 4350 2400
Wire Wire Line
	4350 1650 4350 1850
Wire Wire Line
	4350 2150 4350 2400
Connection ~ 4350 2400
Wire Wire Line
	4350 2400 4800 2400
Wire Wire Line
	3000 1150 3800 1150
Wire Wire Line
	3800 1150 5400 1150
Connection ~ 3800 1150
Wire Wire Line
	3800 2400 3200 2400
Wire Wire Line
	3200 2400 3200 1650
Connection ~ 3800 2400
Wire Wire Line
	6000 2200 5950 2200
Wire Wire Line
	5950 2200 5950 2050
Wire Wire Line
	5950 2050 6700 2050
Wire Wire Line
	6700 2050 6700 2300
Wire Wire Line
	6700 2300 6600 2300
Text Label 7000 1900 2    50   ~ 0
V_OUT_2
$Comp
L ISFET_Project_Lib:LMP7732 U2
U 1 1 608C05AA
P 6200 2300
F 0 "U2" H 6300 1911 60  0000 C CNN
F 1 "LMP7732" H 6300 2017 60  0000 C CNN
F 2 "ISFET:LMP7732_VSSOP" H 6200 2590 60  0001 C CNN
F 3 "https://www.ti.com/lit/ds/symlink/lmp7732.pdf?ts=1619101157917&ref_url=https%253A%252F%252Fwww.ti.com%252Fproduct%252FLMP7732" H 4400 1450 60  0001 C CNN
F 4 "LMP7732MM/NOPB" H 6200 2300 50  0001 C CNN "MPN"
	1    6200 2300
	1    0    0    1   
$EndComp
Wire Wire Line
	5400 2400 6000 2400
Connection ~ 5400 2400
Text GLabel 1100 950  1    50   Input ~ 0
3.3V
Wire Wire Line
	1100 950  1100 1000
Wire Wire Line
	1100 1650 1100 1600
$Comp
L power:GND #PWR02
U 1 1 608DD78F
P 1100 1650
F 0 "#PWR02" H 1100 1400 50  0001 C CNN
F 1 "GND" H 1105 1477 50  0000 C CNN
F 2 "" H 1100 1650 50  0001 C CNN
F 3 "" H 1100 1650 50  0001 C CNN
	1    1100 1650
	1    0    0    -1  
$EndComp
$Comp
L ISFET_Project_Lib:LMP7732 U2
U 2 1 608EF116
P 7800 2200
F 0 "U2" H 7900 1811 60  0000 C CNN
F 1 "LMP7732" H 7900 1917 60  0000 C CNN
F 2 "ISFET:LMP7732_VSSOP" H 7800 2490 60  0001 C CNN
F 3 "https://www.ti.com/lit/ds/symlink/lmp7732.pdf?ts=1619101157917&ref_url=https%253A%252F%252Fwww.ti.com%252Fproduct%252FLMP7732" H 6000 1350 60  0001 C CNN
F 4 "LMP7732MM/NOPB" H 7800 2200 50  0001 C CNN "MPN"
	2    7800 2200
	1    0    0    1   
$EndComp
$Comp
L Device:R R13
U 1 1 608F776C
P 6950 2300
F 0 "R13" V 6743 2300 50  0000 C CNN
F 1 "0" V 6834 2300 50  0000 C CNN
F 2 "Resistor_SMD:R_0603_1608Metric_Pad0.98x0.95mm_HandSolder" V 6880 2300 50  0001 C CNN
F 3 "~" H 6950 2300 50  0001 C CNN
	1    6950 2300
	0    1    1    0   
$EndComp
$Comp
L Device:R R14
U 1 1 608FDA2F
P 7500 2500
F 0 "R14" H 7430 2454 50  0000 R CNN
F 1 "R" H 7430 2545 50  0000 R CNN
F 2 "Resistor_SMD:R_0603_1608Metric_Pad0.98x0.95mm_HandSolder" V 7430 2500 50  0001 C CNN
F 3 "~" H 7500 2500 50  0001 C CNN
	1    7500 2500
	-1   0    0    1   
$EndComp
$Comp
L Device:R R10
U 1 1 60901581
P 7900 1700
F 0 "R10" V 7693 1700 50  0000 C CNN
F 1 "10k" V 7784 1700 50  0000 C CNN
F 2 "Resistor_SMD:R_0603_1608Metric_Pad0.98x0.95mm_HandSolder" V 7830 1700 50  0001 C CNN
F 3 "~" H 7900 1700 50  0001 C CNN
	1    7900 1700
	0    1    1    0   
$EndComp
$Comp
L Device:R R11
U 1 1 60902636
P 7500 1850
F 0 "R11" H 7570 1896 50  0000 L CNN
F 1 "10k" H 7570 1805 50  0000 L CNN
F 2 "Resistor_SMD:R_0603_1608Metric_Pad0.98x0.95mm_HandSolder" V 7430 1850 50  0001 C CNN
F 3 "~" H 7500 1850 50  0001 C CNN
	1    7500 1850
	1    0    0    -1  
$EndComp
Wire Wire Line
	6800 2300 6700 2300
Connection ~ 6700 2300
Wire Wire Line
	7500 2300 7500 2350
Connection ~ 7500 2300
Wire Wire Line
	7500 2300 7600 2300
Wire Wire Line
	7600 2100 7500 2100
Wire Wire Line
	7500 2100 7500 2000
Wire Wire Line
	7500 1700 7750 1700
Wire Wire Line
	8050 1700 8250 1700
Wire Wire Line
	8250 1700 8250 2200
Wire Wire Line
	8250 2200 8200 2200
Wire Wire Line
	6700 2050 6700 1900
Connection ~ 6700 2050
Wire Wire Line
	6700 1900 7000 1900
$Comp
L power:GND #PWR07
U 1 1 60926737
P 7500 2700
F 0 "#PWR07" H 7500 2450 50  0001 C CNN
F 1 "GND" H 7505 2527 50  0000 C CNN
F 2 "" H 7500 2700 50  0001 C CNN
F 3 "" H 7500 2700 50  0001 C CNN
	1    7500 2700
	1    0    0    -1  
$EndComp
Wire Wire Line
	7500 2650 7500 2700
Connection ~ 7500 1700
Text Label 8800 2200 2    50   ~ 0
V_OUT_2_Amp
Wire Notes Line
	500  500  8850 500 
Wire Notes Line
	8850 500  8850 2950
Wire Notes Line
	8850 2950 500  2950
Wire Notes Line
	500  500  500  2950
Text Notes 550  2900 0    50   ~ 0
Based on "New ISFET interface circuit design with temperature compensation"
$Comp
L ISFET_Project_Lib:LMT70 U6
U 1 1 6084C432
P 1550 3950
F 0 "U6" H 1550 4287 60  0000 C CNN
F 1 "LMT70" H 1550 4181 60  0000 C CNN
F 2 "ISFET:LMT70YFQR" H 1550 3640 60  0001 C CNN
F 3 "https://www.ti.com/lit/ds/symlink/lmt70.pdf?HQS=dis-mous-null-mousermode-dsf-pf-null-wwe&ts=1619189921482" H 1550 3700 60  0001 C CNN
F 4 "LMT70AYFQR" H 1550 3700 50  0001 C CNN "MPN"
	1    1550 3950
	1    0    0    -1  
$EndComp
$Comp
L ISFET_Project_Lib:LMT70 U9
U 1 1 6084CDAB
P 1550 5350
F 0 "U9" H 1550 5687 60  0000 C CNN
F 1 "LMT70" H 1550 5581 60  0000 C CNN
F 2 "ISFET:LMT70YFQR" H 1550 5040 60  0001 C CNN
F 3 "https://www.ti.com/lit/ds/symlink/lmt70.pdf?HQS=dis-mous-null-mousermode-dsf-pf-null-wwe&ts=1619189921482" H 1550 5100 60  0001 C CNN
F 4 "LMT70AYFQR" H 1550 5100 50  0001 C CNN "MPN"
	1    1550 5350
	1    0    0    -1  
$EndComp
$Comp
L ISFET_Project_Lib:LMP7732 U5
U 2 1 60853940
P 4350 4350
F 0 "U5" H 4450 4739 60  0000 C CNN
F 1 "LMP7732" H 4450 4633 60  0000 C CNN
F 2 "ISFET:LMP7732_VSSOP" H 4350 4640 60  0001 C CNN
F 3 "https://www.ti.com/lit/ds/symlink/lmp7732.pdf?ts=1619101157917&ref_url=https%253A%252F%252Fwww.ti.com%252Fproduct%252FLMP7732" H 2550 3500 60  0001 C CNN
F 4 "LMP7732MM/NOPB" H 4350 4350 50  0001 C CNN "MPN"
	2    4350 4350
	1    0    0    -1  
$EndComp
$Comp
L Device:R R25
U 1 1 60854BE6
P 3850 4150
F 0 "R25" V 3643 4150 50  0000 C CNN
F 1 "100k" V 3734 4150 50  0000 C CNN
F 2 "Resistor_SMD:R_0603_1608Metric_Pad0.98x0.95mm_HandSolder" V 3780 4150 50  0001 C CNN
F 3 "~" H 3850 4150 50  0001 C CNN
	1    3850 4150
	0    1    1    0   
$EndComp
$Comp
L Device:R R26
U 1 1 60855105
P 3850 4350
F 0 "R26" V 3760 4350 50  0000 C CNN
F 1 "100k" V 3690 4350 50  0000 C CNN
F 2 "Resistor_SMD:R_0603_1608Metric_Pad0.98x0.95mm_HandSolder" V 3780 4350 50  0001 C CNN
F 3 "~" H 3850 4350 50  0001 C CNN
	1    3850 4350
	0    -1   -1   0   
$EndComp
$Comp
L ISFET_Project_Lib:LMP7732 U4
U 1 1 6085F9C3
P 3000 3800
F 0 "U4" H 3100 3411 60  0000 C CNN
F 1 "LMP7732" H 3100 3517 60  0000 C CNN
F 2 "ISFET:LMP7732_VSSOP" H 3000 4090 60  0001 C CNN
F 3 "https://www.ti.com/lit/ds/symlink/lmp7732.pdf?ts=1619101157917&ref_url=https%253A%252F%252Fwww.ti.com%252Fproduct%252FLMP7732" H 1200 2950 60  0001 C CNN
F 4 "LMP7732MM/NOPB" H 3000 3800 50  0001 C CNN "MPN"
	1    3000 3800
	1    0    0    1   
$EndComp
$Comp
L ISFET_Project_Lib:LMP7732 U5
U 1 1 608622D3
P 4350 6100
F 0 "U5" H 4450 6489 60  0000 C CNN
F 1 "LMP7732" H 4450 6383 60  0000 C CNN
F 2 "ISFET:LMP7732_VSSOP" H 4350 6390 60  0001 C CNN
F 3 "https://www.ti.com/lit/ds/symlink/lmp7732.pdf?ts=1619101157917&ref_url=https%253A%252F%252Fwww.ti.com%252Fproduct%252FLMP7732" H 2550 5250 60  0001 C CNN
F 4 "LMP7732MM/NOPB" H 4350 6100 50  0001 C CNN "MPN"
	1    4350 6100
	1    0    0    -1  
$EndComp
$Comp
L Device:R R18
U 1 1 60874629
P 2550 3700
F 0 "R18" V 2343 3700 50  0000 C CNN
F 1 "10k" V 2434 3700 50  0000 C CNN
F 2 "Resistor_SMD:R_0603_1608Metric_Pad0.98x0.95mm_HandSolder" V 2480 3700 50  0001 C CNN
F 3 "~" H 2550 3700 50  0001 C CNN
	1    2550 3700
	0    1    1    0   
$EndComp
$Comp
L Device:R R20
U 1 1 6087462F
P 2550 3900
F 0 "R20" V 2460 3900 50  0000 C CNN
F 1 "10k" V 2390 3900 50  0000 C CNN
F 2 "Resistor_SMD:R_0603_1608Metric_Pad0.98x0.95mm_HandSolder" V 2480 3900 50  0001 C CNN
F 3 "~" H 2550 3900 50  0001 C CNN
	1    2550 3900
	0    -1   -1   0   
$EndComp
$Comp
L Device:R R24
U 1 1 608807B1
P 2750 4150
F 0 "R24" H 2820 4196 50  0000 L CNN
F 1 "100k" H 2820 4105 50  0000 L CNN
F 2 "Resistor_SMD:R_0603_1608Metric_Pad0.98x0.95mm_HandSolder" V 2680 4150 50  0001 C CNN
F 3 "~" H 2750 4150 50  0001 C CNN
	1    2750 4150
	1    0    0    -1  
$EndComp
$Comp
L Device:R R15
U 1 1 60880945
P 3100 3300
F 0 "R15" V 3250 3230 50  0000 L CNN
F 1 "100k" V 3180 3200 50  0000 L CNN
F 2 "Resistor_SMD:R_0603_1608Metric_Pad0.98x0.95mm_HandSolder" V 3030 3300 50  0001 C CNN
F 3 "~" H 3100 3300 50  0001 C CNN
	1    3100 3300
	0    -1   -1   0   
$EndComp
$Comp
L power:GND #PWR013
U 1 1 60899626
P 2750 4350
F 0 "#PWR013" H 2750 4100 50  0001 C CNN
F 1 "GND" H 2755 4177 50  0000 C CNN
F 2 "" H 2750 4350 50  0001 C CNN
F 3 "" H 2750 4350 50  0001 C CNN
	1    2750 4350
	1    0    0    -1  
$EndComp
Wire Wire Line
	2750 4350 2750 4300
Wire Wire Line
	2700 3900 2750 3900
Wire Wire Line
	2750 3900 2750 4000
Connection ~ 2750 3900
Wire Wire Line
	2750 3900 2800 3900
Wire Wire Line
	2700 3700 2750 3700
Wire Wire Line
	3400 3800 3450 3800
Wire Wire Line
	3450 3800 3450 3300
Wire Wire Line
	3450 3300 3250 3300
Wire Wire Line
	2950 3300 2750 3300
Wire Wire Line
	2750 3300 2750 3700
Connection ~ 2750 3700
Wire Wire Line
	2750 3700 2800 3700
$Comp
L Device:R R31
U 1 1 608D25C2
P 2550 5100
F 0 "R31" V 2343 5100 50  0000 C CNN
F 1 "10k" V 2434 5100 50  0000 C CNN
F 2 "Resistor_SMD:R_0603_1608Metric_Pad0.98x0.95mm_HandSolder" V 2480 5100 50  0001 C CNN
F 3 "~" H 2550 5100 50  0001 C CNN
	1    2550 5100
	0    1    1    0   
$EndComp
$Comp
L Device:R R33
U 1 1 608D25C8
P 2550 5300
F 0 "R33" V 2460 5300 50  0000 C CNN
F 1 "10k" V 2390 5300 50  0000 C CNN
F 2 "Resistor_SMD:R_0603_1608Metric_Pad0.98x0.95mm_HandSolder" V 2480 5300 50  0001 C CNN
F 3 "~" H 2550 5300 50  0001 C CNN
	1    2550 5300
	0    -1   -1   0   
$EndComp
$Comp
L Device:R R34
U 1 1 608D25CE
P 2750 5550
F 0 "R34" H 2820 5596 50  0000 L CNN
F 1 "100k" H 2820 5505 50  0000 L CNN
F 2 "Resistor_SMD:R_0603_1608Metric_Pad0.98x0.95mm_HandSolder" V 2680 5550 50  0001 C CNN
F 3 "~" H 2750 5550 50  0001 C CNN
	1    2750 5550
	1    0    0    -1  
$EndComp
$Comp
L Device:R R28
U 1 1 608D25D4
P 3100 4700
F 0 "R28" H 3170 4746 50  0000 L CNN
F 1 "100k" H 3170 4655 50  0000 L CNN
F 2 "Resistor_SMD:R_0603_1608Metric_Pad0.98x0.95mm_HandSolder" V 3030 4700 50  0001 C CNN
F 3 "~" H 3100 4700 50  0001 C CNN
	1    3100 4700
	0    -1   -1   0   
$EndComp
$Comp
L power:GND #PWR023
U 1 1 608D25DA
P 2750 5750
F 0 "#PWR023" H 2750 5500 50  0001 C CNN
F 1 "GND" H 2755 5577 50  0000 C CNN
F 2 "" H 2750 5750 50  0001 C CNN
F 3 "" H 2750 5750 50  0001 C CNN
	1    2750 5750
	1    0    0    -1  
$EndComp
Wire Wire Line
	2750 5750 2750 5700
Wire Wire Line
	2700 5300 2750 5300
Wire Wire Line
	2750 5300 2750 5400
Connection ~ 2750 5300
Wire Wire Line
	2750 5300 2800 5300
Wire Wire Line
	2700 5100 2750 5100
Wire Wire Line
	3400 5200 3450 5200
Wire Wire Line
	3450 5200 3450 4700
Wire Wire Line
	3450 4700 3250 4700
Wire Wire Line
	2950 4700 2750 4700
Wire Wire Line
	2750 4700 2750 5100
Connection ~ 2750 5100
Wire Wire Line
	2750 5100 2800 5100
Wire Wire Line
	4000 4150 4050 4150
Wire Wire Line
	4050 4350 4000 4350
Wire Wire Line
	4050 4150 4050 4250
Connection ~ 4050 4250
Wire Wire Line
	4050 4250 4050 4350
Wire Wire Line
	4750 4350 4800 4350
$Comp
L Device:R_POT RV3
U 1 1 60924E91
P 2000 4650
F 0 "RV3" H 1931 4696 50  0000 R CNN
F 1 "10k" H 1931 4605 50  0000 R CNN
F 2 "Potentiometer_SMD:Potentiometer_Bourns_3269P_Horizontal" H 2000 4650 50  0001 C CNN
F 3 "~" H 2000 4650 50  0001 C CNN
F 4 "3361P-1-103GLF" H 2000 4650 50  0001 C CNN "MPN"
	1    2000 4650
	1    0    0    -1  
$EndComp
$Comp
L power:GND #PWR016
U 1 1 60964F3D
P 750 4900
F 0 "#PWR016" H 750 4650 50  0001 C CNN
F 1 "GND" H 755 4727 50  0000 C CNN
F 2 "" H 750 4900 50  0001 C CNN
F 3 "" H 750 4900 50  0001 C CNN
	1    750  4900
	0    1    -1   0   
$EndComp
Text GLabel 750  4350 0    50   Input ~ 0
3.3V
Wire Wire Line
	2000 4500 2000 4350
Wire Wire Line
	2000 4800 2000 4900
Wire Wire Line
	2000 4900 1750 4900
$Comp
L power:GND #PWR011
U 1 1 60A1B88E
P 1050 4100
F 0 "#PWR011" H 1050 3850 50  0001 C CNN
F 1 "GND" H 1055 3927 50  0000 C CNN
F 2 "" H 1050 4100 50  0001 C CNN
F 3 "" H 1050 4100 50  0001 C CNN
	1    1050 4100
	1    0    0    -1  
$EndComp
Wire Wire Line
	1050 4100 1050 4050
Wire Wire Line
	1050 4050 1100 4050
Text GLabel 1050 3900 0    50   Input ~ 0
3.3V
Wire Wire Line
	1050 3900 1100 3900
$Comp
L power:GND #PWR022
U 1 1 60A30C69
P 1050 5500
F 0 "#PWR022" H 1050 5250 50  0001 C CNN
F 1 "GND" H 1055 5327 50  0000 C CNN
F 2 "" H 1050 5500 50  0001 C CNN
F 3 "" H 1050 5500 50  0001 C CNN
	1    1050 5500
	1    0    0    -1  
$EndComp
Wire Wire Line
	1050 5500 1050 5450
Wire Wire Line
	1050 5450 1100 5450
Text GLabel 1050 5300 0    50   Input ~ 0
3.3V
Wire Wire Line
	1050 5300 1100 5300
Text GLabel 2050 4050 2    50   Input ~ 0
3.3V
Wire Wire Line
	2050 4050 2000 4050
Text GLabel 2050 5450 2    50   Input ~ 0
3.3V
Wire Wire Line
	2050 5450 2000 5450
Wire Wire Line
	2400 5300 2000 5300
Wire Wire Line
	2350 3700 2400 3700
Wire Wire Line
	2000 3900 2400 3900
Wire Wire Line
	2400 5100 2350 5100
Wire Wire Line
	4050 4250 4150 4250
Wire Wire Line
	3700 4150 3450 4150
Wire Wire Line
	3450 4150 3450 3800
Connection ~ 3450 3800
Wire Wire Line
	3450 4700 3450 4350
Wire Wire Line
	3450 4350 3700 4350
Connection ~ 3450 4700
Wire Wire Line
	4150 4450 4100 4450
Wire Wire Line
	4100 4450 4100 4600
Wire Wire Line
	4100 4600 4800 4600
Wire Wire Line
	4800 4600 4800 4350
Text GLabel 3700 6150 2    50   Input ~ 0
5V
$Comp
L Device:C C6
U 1 1 60AFA124
P 3650 6500
F 0 "C6" H 3765 6546 50  0000 L CNN
F 1 "100n" H 3765 6455 50  0000 L CNN
F 2 "Capacitor_SMD:C_0603_1608Metric_Pad1.08x0.95mm_HandSolder" H 3688 6350 50  0001 C CNN
F 3 "~" H 3650 6500 50  0001 C CNN
	1    3650 6500
	1    0    0    -1  
$EndComp
$Comp
L power:GND #PWR024
U 1 1 60B25FE3
P 3650 6700
F 0 "#PWR024" H 3650 6450 50  0001 C CNN
F 1 "GND" H 3655 6527 50  0000 C CNN
F 2 "" H 3650 6700 50  0001 C CNN
F 3 "" H 3650 6700 50  0001 C CNN
	1    3650 6700
	1    0    0    -1  
$EndComp
Wire Wire Line
	3650 6700 3650 6650
$Comp
L power:GND #PWR026
U 1 1 60B2F3C2
P 2050 7200
F 0 "#PWR026" H 2050 6950 50  0001 C CNN
F 1 "GND" H 2055 7027 50  0000 C CNN
F 2 "" H 2050 7200 50  0001 C CNN
F 3 "" H 2050 7200 50  0001 C CNN
	1    2050 7200
	1    0    0    -1  
$EndComp
$Comp
L Device:R R38
U 1 1 60B42569
P 1900 7050
F 0 "R38" H 1970 7096 50  0000 L CNN
F 1 "200" H 1970 7005 50  0000 L CNN
F 2 "Resistor_SMD:R_0603_1608Metric_Pad0.98x0.95mm_HandSolder" V 1830 7050 50  0001 C CNN
F 3 "~" H 1900 7050 50  0001 C CNN
	1    1900 7050
	1    0    0    -1  
$EndComp
$Comp
L Device:R R39
U 1 1 60B4200E
P 2200 7050
F 0 "R39" H 2270 7096 50  0000 L CNN
F 1 "6.8k" H 2270 7005 50  0000 L CNN
F 2 "Resistor_SMD:R_0603_1608Metric_Pad0.98x0.95mm_HandSolder" V 2130 7050 50  0001 C CNN
F 3 "~" H 2200 7050 50  0001 C CNN
	1    2200 7050
	1    0    0    -1  
$EndComp
Wire Wire Line
	1900 7200 2050 7200
Connection ~ 2050 7200
Wire Wire Line
	2050 7200 2200 7200
$Comp
L Device:R R35
U 1 1 60B4B391
P 2050 6650
F 0 "R35" H 2120 6696 50  0000 L CNN
F 1 "200" H 2120 6605 50  0000 L CNN
F 2 "Resistor_SMD:R_0603_1608Metric_Pad0.98x0.95mm_HandSolder" V 1980 6650 50  0001 C CNN
F 3 "~" H 2050 6650 50  0001 C CNN
	1    2050 6650
	1    0    0    -1  
$EndComp
Wire Wire Line
	2050 6900 2200 6900
Wire Wire Line
	1900 6900 2050 6900
Connection ~ 2050 6900
Wire Wire Line
	2050 6800 2050 6900
Connection ~ 2050 6800
$Comp
L Device:R R36
U 1 1 60CCC23A
P 4500 6500
F 0 "R36" V 4707 6500 50  0000 C CNN
F 1 "9k" V 4616 6500 50  0000 C CNN
F 2 "Resistor_SMD:R_0603_1608Metric_Pad0.98x0.95mm_HandSolder" V 4430 6500 50  0001 C CNN
F 3 "~" H 4500 6500 50  0001 C CNN
	1    4500 6500
	0    -1   -1   0   
$EndComp
$Comp
L power:GND #PWR025
U 1 1 60CCDF34
P 4100 6800
F 0 "#PWR025" H 4100 6550 50  0001 C CNN
F 1 "GND" H 4105 6627 50  0000 C CNN
F 2 "" H 4100 6800 50  0001 C CNN
F 3 "" H 4100 6800 50  0001 C CNN
	1    4100 6800
	1    0    0    -1  
$EndComp
Wire Wire Line
	4750 6100 4800 6100
Wire Wire Line
	4800 6100 4800 6500
Wire Wire Line
	4800 6500 4650 6500
Wire Wire Line
	4150 6200 4100 6200
Wire Wire Line
	4100 6200 4100 6500
Wire Wire Line
	4100 6500 4350 6500
$Comp
L Device:R R37
U 1 1 60CCCF98
P 4100 6650
F 0 "R37" H 4170 6696 50  0000 L CNN
F 1 "1k" H 4170 6605 50  0000 L CNN
F 2 "Resistor_SMD:R_0603_1608Metric_Pad0.98x0.95mm_HandSolder" V 4030 6650 50  0001 C CNN
F 3 "~" H 4100 6650 50  0001 C CNN
	1    4100 6650
	1    0    0    -1  
$EndComp
Connection ~ 4100 6500
Wire Wire Line
	750  4350 800  4350
Connection ~ 800  4350
Wire Wire Line
	750  4900 800  4900
Connection ~ 800  4900
Wire Wire Line
	2050 6000 4150 6000
Wire Notes Line
	5350 3050 500  3050
Wire Notes Line
	500  3050 500  7450
Wire Notes Line
	500  7450 5350 7450
Wire Notes Line
	5350 3050 5350 7450
Text Notes 550  7400 0    50   ~ 0
Analog Temperature Sensing
$Comp
L Connector:Conn_Coaxial J5
U 1 1 60ED42AA
P 4150 5200
F 0 "J5" H 4078 5438 50  0000 C CNN
F 1 "Conn_Coaxial" H 4078 5347 50  0000 C CNN
F 2 "Connector_Coaxial:SMA_Samtec_SMA-J-P-X-ST-EM1_EdgeMount" H 4150 5200 50  0001 C CNN
F 3 " https://www.we-online.de/katalog/datasheet/60312202111527.pdf" H 4150 5200 50  0001 C CNN
F 4 "60312202111527" H 4150 5200 50  0001 C CNN "MPN"
	1    4150 5200
	-1   0    0    -1  
$EndComp
$Comp
L power:GND #PWR020
U 1 1 60EE07BA
P 4150 5400
F 0 "#PWR020" H 4150 5150 50  0001 C CNN
F 1 "GND" H 4155 5227 50  0000 C CNN
F 2 "" H 4150 5400 50  0001 C CNN
F 3 "" H 4150 5400 50  0001 C CNN
	1    4150 5400
	1    0    0    -1  
$EndComp
$Comp
L Device:R_POT RV1
U 1 1 60F22E62
P 7250 1450
F 0 "RV1" H 7180 1496 50  0000 R CNN
F 1 "10k" H 7180 1405 50  0000 R CNN
F 2 "Potentiometer_SMD:Potentiometer_Bourns_3269P_Horizontal" H 7250 1450 50  0001 C CNN
F 3 "~" H 7250 1450 50  0001 C CNN
F 4 "3361P-1-103GLF" H 7250 1450 50  0001 C CNN "MPN"
	1    7250 1450
	1    0    0    -1  
$EndComp
$Comp
L power:GND #PWR01
U 1 1 60F35BA4
P 7250 1600
F 0 "#PWR01" H 7250 1350 50  0001 C CNN
F 1 "GND" H 7255 1427 50  0000 C CNN
F 2 "" H 7250 1600 50  0001 C CNN
F 3 "" H 7250 1600 50  0001 C CNN
	1    7250 1600
	1    0    0    -1  
$EndComp
Wire Wire Line
	7250 1300 7250 1250
Wire Wire Line
	7500 1450 7400 1450
Wire Wire Line
	7500 1450 7500 1700
Text Label 3750 1900 2    50   ~ 0
ISFET_D_1
Text Label 3750 2150 2    50   ~ 0
ISFET_S_1
Text Label 7000 4050 2    50   ~ 0
ISFET_D_2
Text Label 7000 4250 2    50   ~ 0
ISFET_S_2
Wire Wire Line
	7050 4250 7000 4250
Wire Wire Line
	7050 4250 7050 4550
Wire Wire Line
	7000 4050 7050 4050
Wire Wire Line
	7050 3800 7050 4050
Wire Wire Line
	3800 2150 3750 2150
Wire Wire Line
	3800 2150 3800 2400
Wire Wire Line
	3750 1900 3800 1900
Wire Wire Line
	3800 1900 3800 1650
Connection ~ 3800 1650
$Comp
L Device:R R16
U 1 1 611F1647
P 10550 850
F 0 "R16" V 10343 850 50  0000 C CNN
F 1 "1k" V 10434 850 50  0000 C CNN
F 2 "Resistor_SMD:R_0603_1608Metric_Pad0.98x0.95mm_HandSolder" V 10480 850 50  0001 C CNN
F 3 "~" H 10550 850 50  0001 C CNN
	1    10550 850 
	0    1    1    0   
$EndComp
$Comp
L Device:R R22
U 1 1 611F1ED1
P 10550 1350
F 0 "R22" V 10343 1350 50  0000 C CNN
F 1 "1k" V 10434 1350 50  0000 C CNN
F 2 "Resistor_SMD:R_0603_1608Metric_Pad0.98x0.95mm_HandSolder" V 10480 1350 50  0001 C CNN
F 3 "~" H 10550 1350 50  0001 C CNN
	1    10550 1350
	0    1    1    0   
$EndComp
Text GLabel 12950 1000 2    50   Input ~ 0
V_REF
Wire Wire Line
	10350 1100 10400 1100
Wire Wire Line
	10400 1100 10400 850 
Wire Wire Line
	10400 1100 10400 1350
Connection ~ 10400 1100
$Comp
L Device:C C5
U 1 1 61317D14
P 11750 2400
F 0 "C5" H 11865 2446 50  0000 L CNN
F 1 "22u" H 11865 2355 50  0000 L CNN
F 2 "Capacitor_SMD:C_1206_3216Metric_Pad1.33x1.80mm_HandSolder" H 11788 2250 50  0001 C CNN
F 3 "~" H 11750 2400 50  0001 C CNN
	1    11750 2400
	1    0    0    -1  
$EndComp
$Comp
L Device:R R30
U 1 1 613187BE
P 11500 2250
F 0 "R30" V 11293 2250 50  0000 C CNN
F 1 "270k" V 11384 2250 50  0000 C CNN
F 2 "Resistor_SMD:R_0603_1608Metric_Pad0.98x0.95mm_HandSolder" V 11430 2250 50  0001 C CNN
F 3 "~" H 11500 2250 50  0001 C CNN
	1    11500 2250
	0    1    1    0   
$EndComp
Wire Wire Line
	11650 2250 11750 2250
$Comp
L power:GND #PWR019
U 1 1 613276B4
P 11750 2550
F 0 "#PWR019" H 11750 2300 50  0001 C CNN
F 1 "GND" H 11755 2377 50  0000 C CNN
F 2 "" H 11750 2550 50  0001 C CNN
F 3 "" H 11750 2550 50  0001 C CNN
	1    11750 2550
	1    0    0    -1  
$EndComp
Text GLabel 11000 1750 0    50   Input ~ 0
3.3V
Wire Wire Line
	11000 1750 11050 1750
Wire Wire Line
	11050 1750 11050 1850
$Comp
L power:GND #PWR021
U 1 1 6141A8D6
P 11050 2650
F 0 "#PWR021" H 11050 2400 50  0001 C CNN
F 1 "GND" H 11055 2477 50  0000 C CNN
F 2 "" H 11050 2650 50  0001 C CNN
F 3 "" H 11050 2650 50  0001 C CNN
	1    11050 2650
	1    0    0    -1  
$EndComp
Text Label 12050 2250 2    50   ~ 0
COMP-
Wire Wire Line
	12050 2250 11750 2250
Connection ~ 11750 2250
$Comp
L Device:R R29
U 1 1 614F0C86
P 10600 2050
F 0 "R29" V 10393 2050 50  0000 C CNN
F 1 "1k" V 10484 2050 50  0000 C CNN
F 2 "Resistor_SMD:R_0603_1608Metric_Pad0.98x0.95mm_HandSolder" V 10530 2050 50  0001 C CNN
F 3 "~" H 10600 2050 50  0001 C CNN
	1    10600 2050
	0    1    1    0   
$EndComp
$Comp
L Device:R R32
U 1 1 614F0C8C
P 10600 2450
F 0 "R32" V 10393 2450 50  0000 C CNN
F 1 "1k" V 10484 2450 50  0000 C CNN
F 2 "Resistor_SMD:R_0603_1608Metric_Pad0.98x0.95mm_HandSolder" V 10530 2450 50  0001 C CNN
F 3 "~" H 10600 2450 50  0001 C CNN
	1    10600 2450
	0    1    1    0   
$EndComp
Wire Wire Line
	10450 2450 10450 2250
Wire Wire Line
	10350 2250 10450 2250
Connection ~ 10450 2250
Wire Wire Line
	10450 2250 10450 2050
$Comp
L Transistor_BJT:BC857 Q3
U 1 1 6090DEC8
P 10950 2050
F 0 "Q3" H 11141 2004 50  0000 L CNN
F 1 "BC857" H 11141 2095 50  0000 L CNN
F 2 "Package_TO_SOT_SMD:SOT-23" H 11150 1975 50  0001 L CIN
F 3 "https://www.onsemi.com/pub/Collateral/BC860-D.pdf" H 10950 2050 50  0001 L CNN
	1    10950 2050
	1    0    0    1   
$EndComp
$Comp
L Transistor_BJT:BC847 Q4
U 1 1 6091EE56
P 10950 2450
F 0 "Q4" H 11141 2496 50  0000 L CNN
F 1 "BC847" H 11141 2405 50  0000 L CNN
F 2 "Package_TO_SOT_SMD:SOT-23" H 11150 2375 50  0001 L CIN
F 3 "http://www.infineon.com/dgdl/Infineon-BC847SERIES_BC848SERIES_BC849SERIES_BC850SERIES-DS-v01_01-en.pdf?fileId=db3a304314dca389011541d4630a1657" H 10950 2450 50  0001 L CNN
	1    10950 2450
	1    0    0    -1  
$EndComp
Connection ~ 10350 1650
Wire Wire Line
	10350 1650 10350 2250
Wire Wire Line
	10150 1650 10200 1650
Wire Wire Line
	9500 1550 9250 1550
Connection ~ 9500 1550
$Comp
L Device:R R19
U 1 1 608B8265
P 9850 1050
F 0 "R19" V 9643 1050 50  0000 C CNN
F 1 "68.1k" V 9734 1050 50  0000 C CNN
F 2 "Resistor_SMD:R_0603_1608Metric_Pad0.98x0.95mm_HandSolder" V 9780 1050 50  0001 C CNN
F 3 "~" H 9850 1050 50  0001 C CNN
	1    9850 1050
	0    1    1    0   
$EndComp
Text Label 9500 1850 3    50   ~ 0
COMP-
$Comp
L power:GND #PWR014
U 1 1 612ECB06
P 9250 1900
F 0 "#PWR014" H 9250 1650 50  0001 C CNN
F 1 "GND" H 9255 1727 50  0000 C CNN
F 2 "" H 9250 1900 50  0001 C CNN
F 3 "" H 9250 1900 50  0001 C CNN
	1    9250 1900
	1    0    0    -1  
$EndComp
Wire Wire Line
	9250 1150 9200 1150
Wire Wire Line
	9250 1200 9250 1150
Text GLabel 9200 1150 0    50   Input ~ 0
3.3V
Wire Wire Line
	9250 1550 9250 1500
Connection ~ 9250 1550
Wire Wire Line
	9550 1550 9500 1550
Wire Wire Line
	9250 1600 9250 1550
$Comp
L Device:R R23
U 1 1 612A11F0
P 9250 1350
F 0 "R23" H 9320 1396 50  0000 L CNN
F 1 "100k" H 9320 1305 50  0000 L CNN
F 2 "Resistor_SMD:R_0603_1608Metric_Pad0.98x0.95mm_HandSolder" V 9180 1350 50  0001 C CNN
F 3 "~" H 9250 1350 50  0001 C CNN
	1    9250 1350
	1    0    0    -1  
$EndComp
$Comp
L Device:R R27
U 1 1 6129FEC4
P 9250 1750
F 0 "R27" H 9320 1796 50  0000 L CNN
F 1 "127k" H 9320 1705 50  0000 L CNN
F 2 "Resistor_SMD:R_0603_1608Metric_Pad0.98x0.95mm_HandSolder" V 9180 1750 50  0001 C CNN
F 3 "~" H 9250 1750 50  0001 C CNN
	1    9250 1750
	1    0    0    -1  
$EndComp
Wire Wire Line
	10200 1650 10350 1650
Connection ~ 10200 1650
Connection ~ 11050 2250
Text Notes 9000 2900 0    50   ~ 0
Reference electrode potential switching
$Comp
L power:GND #PWR010
U 1 1 60B03448
P 12800 1350
F 0 "#PWR010" H 12800 1100 50  0001 C CNN
F 1 "GND" H 12805 1177 50  0000 C CNN
F 2 "" H 12800 1350 50  0001 C CNN
F 3 "" H 12800 1350 50  0001 C CNN
	1    12800 1350
	1    0    0    -1  
$EndComp
Wire Wire Line
	12800 600  12750 600 
Wire Wire Line
	12800 650  12800 600 
Text GLabel 12750 600  0    50   Input ~ 0
3V_REF
$Comp
L Device:R R17
U 1 1 60B03454
P 12800 800
F 0 "R17" H 12870 846 50  0000 L CNN
F 1 "90.9k" H 12870 755 50  0000 L CNN
F 2 "Resistor_SMD:R_0603_1608Metric_Pad0.98x0.95mm_HandSolder" V 12730 800 50  0001 C CNN
F 3 "~" H 12800 800 50  0001 C CNN
	1    12800 800 
	1    0    0    -1  
$EndComp
$Comp
L Device:R R21
U 1 1 60B0345A
P 12800 1200
F 0 "R21" H 12870 1246 50  0000 L CNN
F 1 "10k" H 12870 1155 50  0000 L CNN
F 2 "Resistor_SMD:R_0603_1608Metric_Pad0.98x0.95mm_HandSolder" V 12730 1200 50  0001 C CNN
F 3 "~" H 12800 1200 50  0001 C CNN
	1    12800 1200
	1    0    0    -1  
$EndComp
Wire Wire Line
	12800 950  12800 1000
Wire Wire Line
	12950 1000 12800 1000
Connection ~ 12800 1000
Wire Wire Line
	12800 1000 12800 1050
Wire Wire Line
	9550 1750 9500 1750
Wire Wire Line
	9500 1750 9500 1850
$Comp
L power:GND #PWR015
U 1 1 6088D1FF
P 9750 2000
F 0 "#PWR015" H 9750 1750 50  0001 C CNN
F 1 "GND" H 9755 1827 50  0000 C CNN
F 2 "" H 9750 2000 50  0001 C CNN
F 3 "" H 9750 2000 50  0001 C CNN
	1    9750 2000
	1    0    0    -1  
$EndComp
Wire Wire Line
	9750 2000 9750 1950
Text GLabel 9750 1200 2    50   Input ~ 0
3.3V
Wire Wire Line
	9750 1200 9750 1350
Wire Wire Line
	10000 1050 10200 1050
Wire Wire Line
	10200 1050 10200 1650
Wire Wire Line
	9500 1050 9700 1050
Wire Wire Line
	9500 1050 9500 1550
$Comp
L ISFET_Project_Lib:LMP7732 U1
U 1 1 60827653
P 2550 1150
F 0 "U1" H 3000 1250 60  0000 C CNN
F 1 "LMP7732" H 2950 1350 60  0000 C CNN
F 2 "ISFET:LMP7732_VSSOP" H 2550 1440 60  0001 C CNN
F 3 "https://www.ti.com/lit/ds/symlink/lmp7732.pdf?ts=1619101157917&ref_url=https%253A%252F%252Fwww.ti.com%252Fproduct%252FLMP7732" H 750 300 60  0001 C CNN
F 4 "LMP7732MM/NOPB" H 2550 1150 50  0001 C CNN "MPN"
	1    2550 1150
	1    0    0    1   
$EndComp
$Comp
L ISFET_Project_Lib:LMP7732 U2
U 3 1 60823FEF
P 1400 1350
F 0 "U2" V 1200 1250 60  0000 L CNN
F 1 "LMP7732" V 1300 1150 60  0000 L CNN
F 2 "ISFET:LMP7732_VSSOP" H 1400 1640 60  0001 C CNN
F 3 "https://www.ti.com/lit/ds/symlink/lmp7732.pdf?ts=1619101157917&ref_url=https%253A%252F%252Fwww.ti.com%252Fproduct%252FLMP7732" H -400 500 60  0001 C CNN
F 4 "LMP7732MM/NOPB" H 1400 1350 50  0001 C CNN "MPN"
	3    1400 1350
	1    0    0    -1  
$EndComp
$Comp
L ISFET_Project_Lib:LMP7732 U4
U 3 1 60862DA7
P 800 4650
F 0 "U4" V 1000 4550 60  0000 L CNN
F 1 "LMP7732" V 900 4450 60  0000 L CNN
F 2 "ISFET:LMP7732_VSSOP" H 800 4940 60  0001 C CNN
F 3 "https://www.ti.com/lit/ds/symlink/lmp7732.pdf?ts=1619101157917&ref_url=https%253A%252F%252Fwww.ti.com%252Fproduct%252FLMP7732" H -1000 3800 60  0001 C CNN
F 4 "LMP7732MM/NOPB" H 800 4650 50  0001 C CNN "MPN"
	3    800  4650
	-1   0    0    -1  
$EndComp
$Comp
L ISFET_Project_Lib:LMP7732 U1
U 3 1 608D7490
P 1100 1350
F 0 "U1" V 900 1300 60  0000 L CNN
F 1 "LMP7732" V 1000 1150 60  0000 L CNN
F 2 "ISFET:LMP7732_VSSOP" H 1100 1640 60  0001 C CNN
F 3 "https://www.ti.com/lit/ds/symlink/lmp7732.pdf?ts=1619101157917&ref_url=https%253A%252F%252Fwww.ti.com%252Fproduct%252FLMP7732" H -700 500 60  0001 C CNN
F 4 "LMP7732MM/NOPB" H 1100 1350 50  0001 C CNN "MPN"
	3    1100 1350
	1    0    0    -1  
$EndComp
$Comp
L ISFET_Project_Lib:LMP7732 U4
U 2 1 608D25BC
P 3000 5200
F 0 "U4" H 3100 4811 60  0000 C CNN
F 1 "LMP7732" H 3100 4917 60  0000 C CNN
F 2 "ISFET:LMP7732_VSSOP" H 3000 5490 60  0001 C CNN
F 3 "https://www.ti.com/lit/ds/symlink/lmp7732.pdf?ts=1619101157917&ref_url=https%253A%252F%252Fwww.ti.com%252Fproduct%252FLMP7732" H 1200 4350 60  0001 C CNN
F 4 "LMP7732MM/NOPB" H 3000 5200 50  0001 C CNN "MPN"
	2    3000 5200
	1    0    0    1   
$EndComp
$Comp
L ISFET_Project_Lib:LMP7732 U5
U 3 1 60964F47
P 1750 4650
F 0 "U5" V 1950 4600 60  0000 L CNN
F 1 "LMP7732" V 1850 4450 60  0000 L CNN
F 2 "ISFET:LMP7732_VSSOP" H 1750 4940 60  0001 C CNN
F 3 "https://www.ti.com/lit/ds/symlink/lmp7732.pdf?ts=1619101157917&ref_url=https%253A%252F%252Fwww.ti.com%252Fproduct%252FLMP7732" H -50 3800 60  0001 C CNN
F 4 "LMP7732MM/NOPB" H 1750 4650 50  0001 C CNN "MPN"
	3    1750 4650
	-1   0    0    -1  
$EndComp
$Comp
L Comparator:TLV7031DBV U7
U 1 1 60883B3C
P 9850 1650
F 0 "U7" H 10000 1450 50  0000 L CNN
F 1 "TLV7031DBV" H 9850 1350 50  0000 L CNN
F 2 "Package_TO_SOT_SMD:SOT-23-5" H 9750 1450 50  0001 L CNN
F 3 "https://www.ti.com/lit/ds/symlink/tlv7031.pdf" H 9850 1850 50  0001 C CNN
	1    9850 1650
	1    0    0    -1  
$EndComp
$Comp
L Device:R R41
U 1 1 60905DE4
P 4550 5200
F 0 "R41" V 4757 5200 50  0000 C CNN
F 1 "50" V 4666 5200 50  0000 C CNN
F 2 "Resistor_SMD:R_0603_1608Metric_Pad0.98x0.95mm_HandSolder" V 4480 5200 50  0001 C CNN
F 3 "~" H 4550 5200 50  0001 C CNN
	1    4550 5200
	0    -1   -1   0   
$EndComp
Wire Wire Line
	4700 5200 4800 5200
Wire Wire Line
	4350 5200 4400 5200
$Comp
L Device:C C7
U 1 1 609BE044
P 7200 2500
F 0 "C7" H 7315 2546 50  0000 L CNN
F 1 "C" H 7315 2455 50  0000 L CNN
F 2 "Capacitor_SMD:C_0603_1608Metric_Pad1.08x0.95mm_HandSolder" H 7238 2350 50  0001 C CNN
F 3 "~" H 7200 2500 50  0001 C CNN
	1    7200 2500
	1    0    0    -1  
$EndComp
Wire Wire Line
	8800 2200 8250 2200
Connection ~ 8250 2200
Wire Wire Line
	7100 2300 7200 2300
Wire Wire Line
	7200 2350 7200 2300
Connection ~ 7200 2300
Wire Wire Line
	7200 2300 7500 2300
$Comp
L power:GND #PWR027
U 1 1 60A6B9E2
P 7200 2700
F 0 "#PWR027" H 7200 2450 50  0001 C CNN
F 1 "GND" H 7205 2527 50  0000 C CNN
F 2 "" H 7200 2700 50  0001 C CNN
F 3 "" H 7200 2700 50  0001 C CNN
	1    7200 2700
	1    0    0    -1  
$EndComp
Wire Wire Line
	7200 2700 7200 2650
Text Notes 12450 1650 0    50   ~ 0
1% Temp. stable
Wire Wire Line
	11850 1100 12250 1100
Connection ~ 11850 1100
Wire Wire Line
	11850 1350 11850 1100
Wire Wire Line
	11800 1350 11850 1350
Wire Wire Line
	11850 850  11800 850 
Text Label 12250 1100 2    50   ~ 0
ISFET_REF
Text GLabel 11850 850  2    50   Input ~ 0
V_REF
Wire Wire Line
	11800 1100 11850 1100
$Comp
L ISFET_Project_Lib:SIL2308-TP Q1
U 1 1 60B8A27D
P 11350 1100
F 0 "Q1" H 11350 1615 50  0000 C CNN
F 1 "SIL2308-TP" H 11350 1524 50  0000 C CNN
F 2 "ISFET:SOT95P270X145-6N" H 11100 600 50  0001 L CNN
F 3 "https://www.mccsemi.com/pdf/Products/SIL2308(SOT-23-6L)-A.pdf" H 11100 600 50  0001 L CNN
F 4 "MOSFET Dual N&P-Ch 20Vds 5A -4A 8Vgs 12Vgs" H 11100 500 50  0001 L CNN "Description"
F 5 "1.45" H 11100 400 50  0001 L CNN "Height"
F 6 "833-SIL2308-TP" H 11100 300 50  0001 L CNN "Mouser Part Number"
F 7 "https://www.mouser.co.uk/ProductDetail/Micro-Commercial-Components-MCC/SIL2308-TP?qs=P1JMDcb91o46vQ2iJbteYg%3D%3D" H 11100 200 50  0001 L CNN "Mouser Price/Stock"
F 8 "Micro Commercial Components (MCC)" H 11100 100 50  0001 L CNN "Manufacturer_Name"
F 9 "SIL2308-TP" H 11100 0   50  0001 L CNN "Manufacturer_Part_Number"
	1    11350 1100
	1    0    0    -1  
$EndComp
$Comp
L power:GND #PWR012
U 1 1 611D5AEF
P 10900 1100
F 0 "#PWR012" H 10900 850 50  0001 C CNN
F 1 "GND" H 10905 927 50  0000 C CNN
F 2 "" H 10900 1100 50  0001 C CNN
F 3 "" H 10900 1100 50  0001 C CNN
	1    10900 1100
	0    1    1    0   
$EndComp
Wire Wire Line
	10700 850  10900 850 
Wire Wire Line
	10700 1350 10900 1350
Wire Notes Line
	8950 2950 8950 500 
Wire Notes Line
	8950 500  13250 500 
Wire Notes Line
	13250 500  13250 2950
Wire Notes Line
	13250 2950 8950 2950
Wire Notes Line
	13250 1700 12400 1700
Wire Notes Line
	12400 1700 12400 500 
Text Notes 5500 7550 0    50   ~ 0
ISFET circiut and output selections 
Text Label 5850 5250 2    50   ~ 0
ISFET_REF
Text Label 6950 6000 0    50   ~ 0
ISFET_S_2
Text Label 6950 5350 0    50   ~ 0
ISFET_D_2
Text Label 6500 6350 2    50   ~ 0
ISFET_S_1
Text Label 6500 5000 2    50   ~ 0
ISFET_D_1
Connection ~ 9100 5250
Wire Wire Line
	9300 5250 9100 5250
Wire Wire Line
	8900 5250 9100 5250
Wire Wire Line
	9100 5650 9100 5700
Connection ~ 9100 5650
Wire Wire Line
	8950 5650 9100 5650
Wire Wire Line
	9100 5600 9100 5650
Wire Wire Line
	8950 5350 8900 5350
Wire Wire Line
	8950 5650 8950 5350
Text GLabel 9300 5250 2    50   Input ~ 0
3V_REF
Wire Wire Line
	9100 5300 9100 5250
Connection ~ 7800 5300
Wire Wire Line
	7800 5350 7800 5300
$Comp
L power:GND #PWR017
U 1 1 609E453A
P 7800 5650
F 0 "#PWR017" H 7800 5400 50  0001 C CNN
F 1 "GND" H 7805 5477 50  0000 C CNN
F 2 "" H 7800 5650 50  0001 C CNN
F 3 "" H 7800 5650 50  0001 C CNN
	1    7800 5650
	1    0    0    -1  
$EndComp
$Comp
L Device:C C3
U 1 1 609CD5ED
P 9100 5450
F 0 "C3" H 9215 5496 50  0000 L CNN
F 1 "1u" H 9215 5405 50  0000 L CNN
F 2 "Capacitor_SMD:C_0805_2012Metric_Pad1.18x1.45mm_HandSolder" H 9138 5300 50  0001 C CNN
F 3 "~" H 9100 5450 50  0001 C CNN
	1    9100 5450
	1    0    0    -1  
$EndComp
$Comp
L Device:C C4
U 1 1 609C5690
P 7800 5500
F 0 "C4" H 7915 5546 50  0000 L CNN
F 1 "10u" H 7915 5455 50  0000 L CNN
F 2 "Capacitor_SMD:C_0805_2012Metric_Pad1.18x1.45mm_HandSolder" H 7838 5350 50  0001 C CNN
F 3 "~" H 7800 5500 50  0001 C CNN
	1    7800 5500
	1    0    0    -1  
$EndComp
$Comp
L power:GND #PWR08
U 1 1 60867CCD
P 5850 6050
F 0 "#PWR08" H 5850 5800 50  0001 C CNN
F 1 "GND" H 5855 5877 50  0000 C CNN
F 2 "" H 5850 6050 50  0001 C CNN
F 3 "" H 5850 6050 50  0001 C CNN
	1    5850 6050
	1    0    0    -1  
$EndComp
$Comp
L ISFET_Project_Lib:REF3330 U8
U 1 1 6081E328
P 8350 5300
F 0 "U8" H 8350 5637 60  0000 C CNN
F 1 "REF3330" H 8350 5531 60  0000 C CNN
F 2 "ISFET:REF3330AIDBZR" H 8350 5290 60  0001 C CNN
F 3 "https://www.ti.com/lit/ds/symlink/ref3330.pdf?ts=1619116396214&ref_url=https%253A%252F%252Fwww.ti.com%252Fproduct%252FREF3330" H 7800 5300 60  0001 C CNN
F 4 "REF3330AIDCKR" H 8350 5300 50  0001 C CNN "MPN"
	1    8350 5300
	1    0    0    -1  
$EndComp
Text Notes 7500 6100 0    50   ~ 0
Voltage Reference \n30ppm/C 0.15%acc
Wire Notes Line
	7450 4900 9700 4900
Wire Notes Line
	7450 6150 7450 4900
Wire Notes Line
	9700 6150 7450 6150
Wire Notes Line
	9700 4900 9700 6150
Wire Wire Line
	7750 5300 7800 5300
$Comp
L power:GND #PWR018
U 1 1 6082452B
P 9100 5700
F 0 "#PWR018" H 9100 5450 50  0001 C CNN
F 1 "GND" H 9105 5527 50  0000 C CNN
F 2 "" H 9100 5700 50  0001 C CNN
F 3 "" H 9100 5700 50  0001 C CNN
	1    9100 5700
	1    0    0    -1  
$EndComp
Wire Notes Line
	5450 3050 5450 4800
Wire Notes Line
	10250 4800 5450 4800
$Comp
L Device:R R45
U 1 1 60EA7E57
P 5850 5850
F 0 "R45" H 5920 5896 50  0000 L CNN
F 1 "0" H 5920 5805 50  0000 L CNN
F 2 "Resistor_SMD:R_0603_1608Metric_Pad0.98x0.95mm_HandSolder" V 5780 5850 50  0001 C CNN
F 3 "~" H 5850 5850 50  0001 C CNN
	1    5850 5850
	1    0    0    -1  
$EndComp
$Comp
L Device:R R44
U 1 1 60EA8980
P 5850 5450
F 0 "R44" H 5920 5496 50  0000 L CNN
F 1 "0" H 5920 5405 50  0000 L CNN
F 2 "Resistor_SMD:R_0603_1608Metric_Pad0.98x0.95mm_HandSolder" V 5780 5450 50  0001 C CNN
F 3 "~" H 5850 5450 50  0001 C CNN
	1    5850 5450
	1    0    0    -1  
$EndComp
Wire Wire Line
	5850 5300 5850 5250
Wire Wire Line
	5850 5700 5850 5650
Wire Wire Line
	5850 6050 5850 6000
Wire Wire Line
	6000 5650 5850 5650
Connection ~ 5850 5650
Wire Wire Line
	5850 5650 5850 5600
$Comp
L Device:R R42
U 1 1 60FC18B9
P 6500 5200
F 0 "R42" H 6570 5246 50  0000 L CNN
F 1 "0" H 6570 5155 50  0000 L CNN
F 2 "Resistor_SMD:R_0603_1608Metric_Pad0.98x0.95mm_HandSolder" V 6430 5200 50  0001 C CNN
F 3 "~" H 6500 5200 50  0001 C CNN
	1    6500 5200
	1    0    0    -1  
$EndComp
$Comp
L Device:R R47
U 1 1 60FD297C
P 6500 6150
F 0 "R47" H 6570 6196 50  0000 L CNN
F 1 "0" H 6570 6105 50  0000 L CNN
F 2 "Resistor_SMD:R_0603_1608Metric_Pad0.98x0.95mm_HandSolder" V 6430 6150 50  0001 C CNN
F 3 "~" H 6500 6150 50  0001 C CNN
	1    6500 6150
	1    0    0    -1  
$EndComp
$Comp
L Device:R R46
U 1 1 60FE3CEF
P 6750 6000
F 0 "R46" H 6820 6046 50  0000 L CNN
F 1 "0" H 6820 5955 50  0000 L CNN
F 2 "Resistor_SMD:R_0603_1608Metric_Pad0.98x0.95mm_HandSolder" V 6680 6000 50  0001 C CNN
F 3 "~" H 6750 6000 50  0001 C CNN
	1    6750 6000
	0    -1   -1   0   
$EndComp
$Comp
L Device:R R43
U 1 1 60FF50B9
P 6750 5350
F 0 "R43" H 6820 5396 50  0000 L CNN
F 1 "0" H 6820 5305 50  0000 L CNN
F 2 "Resistor_SMD:R_0603_1608Metric_Pad0.98x0.95mm_HandSolder" V 6680 5350 50  0001 C CNN
F 3 "~" H 6750 5350 50  0001 C CNN
	1    6750 5350
	0    -1   -1   0   
$EndComp
Wire Wire Line
	6500 6350 6500 6300
Wire Wire Line
	6900 6000 6950 6000
Wire Wire Line
	6600 6000 6500 6000
Wire Wire Line
	6500 5850 6500 6000
Connection ~ 6500 6000
Wire Wire Line
	6500 5350 6500 5450
Wire Wire Line
	6500 5350 6600 5350
Connection ~ 6500 5350
Wire Wire Line
	6500 5050 6500 5000
Wire Wire Line
	6900 5350 6950 5350
Wire Wire Line
	5850 6950 5800 6950
Wire Wire Line
	6150 6950 6500 6950
$Comp
L Device:R R40
U 1 1 6094DF29
P 6000 6950
F 0 "R40" V 6207 6950 50  0000 C CNN
F 1 "50" V 6116 6950 50  0000 C CNN
F 2 "Resistor_SMD:R_0603_1608Metric_Pad0.98x0.95mm_HandSolder" V 5930 6950 50  0001 C CNN
F 3 "~" H 6000 6950 50  0001 C CNN
	1    6000 6950
	0    -1   -1   0   
$EndComp
Text Label 6950 6950 0    50   ~ 0
V_OUT_2
Text Label 6500 7350 2    50   ~ 0
V_OUT_2_Amp
Text Label 6500 6550 2    50   ~ 0
V_OUT_1
$Comp
L power:GND #PWR09
U 1 1 60F695D5
P 5600 7150
F 0 "#PWR09" H 5600 6900 50  0001 C CNN
F 1 "GND" H 5605 6977 50  0000 C CNN
F 2 "" H 5600 7150 50  0001 C CNN
F 3 "" H 5600 7150 50  0001 C CNN
	1    5600 7150
	1    0    0    -1  
$EndComp
$Comp
L Connector:Conn_Coaxial J3
U 1 1 60F695CF
P 5600 6950
F 0 "J3" H 5528 7097 50  0000 C CNN
F 1 "Conn_Coaxial" H 5528 7097 50  0001 C CNN
F 2 "Connector_Coaxial:SMA_Samtec_SMA-J-P-X-ST-EM1_EdgeMount" H 5600 6950 50  0001 C CNN
F 3 "https://www.we-online.de/katalog/datasheet/60312202111527.pdf" H 5600 6950 50  0001 C CNN
F 4 "60312202111527" H 5600 6950 50  0001 C CNN "MPN"
	1    5600 6950
	-1   0    0    -1  
$EndComp
$Comp
L Device:R R49
U 1 1 611147AA
P 6750 6950
F 0 "R49" H 6820 6996 50  0000 L CNN
F 1 "0" H 6820 6905 50  0000 L CNN
F 2 "Resistor_SMD:R_0603_1608Metric_Pad0.98x0.95mm_HandSolder" V 6680 6950 50  0001 C CNN
F 3 "~" H 6750 6950 50  0001 C CNN
	1    6750 6950
	0    -1   -1   0   
$EndComp
$Comp
L Device:R R48
U 1 1 61125BF5
P 6500 6750
F 0 "R48" H 6570 6796 50  0000 L CNN
F 1 "0" H 6570 6705 50  0000 L CNN
F 2 "Resistor_SMD:R_0603_1608Metric_Pad0.98x0.95mm_HandSolder" V 6430 6750 50  0001 C CNN
F 3 "~" H 6500 6750 50  0001 C CNN
	1    6500 6750
	1    0    0    -1  
$EndComp
$Comp
L Device:R R50
U 1 1 61137173
P 6500 7150
F 0 "R50" H 6570 7196 50  0000 L CNN
F 1 "0" H 6570 7105 50  0000 L CNN
F 2 "Resistor_SMD:R_0603_1608Metric_Pad0.98x0.95mm_HandSolder" V 6430 7150 50  0001 C CNN
F 3 "~" H 6500 7150 50  0001 C CNN
	1    6500 7150
	1    0    0    -1  
$EndComp
Wire Wire Line
	6500 6900 6500 6950
Connection ~ 6500 6950
Wire Wire Line
	6500 6950 6500 7000
Wire Wire Line
	6600 6950 6500 6950
Wire Wire Line
	6500 7350 6500 7300
Wire Wire Line
	6900 6950 6950 6950
Wire Wire Line
	6500 6550 6500 6600
Wire Notes Line
	5450 7600 5450 4900
Wire Notes Line
	5450 4900 7350 4900
Wire Notes Line
	7350 4900 7350 7600
Wire Notes Line
	7350 7600 5450 7600
Wire Wire Line
	10350 1100 10350 1650
$Comp
L ISFET_Project_Lib:ISFET M1
U 1 1 61454026
P 6350 5650
F 0 "M1" H 6588 5696 50  0000 L CNN
F 1 "ISFET" H 6588 5605 50  0000 L CNN
F 2 "ISFET:ISFET" H 6355 5650 50  0001 C CNN
F 3 "http://www.winsense.co.th/item/item_image/winsense_isfet_ph_sensor_wips_datasheet.pdf" H 6355 5650 50  0001 C CNN
	1    6350 5650
	1    0    0    -1  
$EndComp
$Comp
L Sensor_Temperature:LM35-LP U10
U 1 1 61472367
P 2850 6500
F 0 "U10" H 2520 6546 50  0000 R CNN
F 1 "LM35-LP" H 2520 6455 50  0000 R CNN
F 2 "Package_TO_SOT_THT:TO-92L_Inline" H 2900 6250 50  0001 L CNN
F 3 "http://www.ti.com/lit/ds/symlink/lm35.pdf" H 2850 6500 50  0001 C CNN
	1    2850 6500
	-1   0    0    -1  
$EndComp
Wire Wire Line
	3650 6150 2850 6150
Wire Wire Line
	2850 6150 2850 6200
Wire Wire Line
	3650 6150 3650 6350
Wire Wire Line
	3700 6150 3650 6150
Connection ~ 3650 6150
Wire Wire Line
	2050 6800 2850 6800
Wire Wire Line
	2450 6500 2050 6500
Wire Wire Line
	2050 6000 2050 6500
Connection ~ 2050 6500
$Comp
L ISFET-rescue:USB_B_Micro-Connector J2
U 1 1 6164A003
P 10600 3600
F 0 "J2" H 10657 4067 50  0000 C CNN
F 1 "USB_B_Micro" H 10657 3976 50  0000 C CNN
F 2 "ISFET:USB_Micro-B_Molex-105017-0001" H 10750 3550 50  0001 C CNN
F 3 "~" H 10750 3550 50  0001 C CNN
	1    10600 3600
	1    0    0    -1  
$EndComp
$Comp
L Regulator_Linear:LP5907MFX-3.3 U11
U 1 1 6164CE91
P 11800 3500
F 0 "U11" H 11800 3867 50  0000 C CNN
F 1 "LP5907MFX-3.3" H 11800 3776 50  0000 C CNN
F 2 "Package_TO_SOT_SMD:SOT-23-5" H 11800 3850 50  0001 C CNN
F 3 "http://www.ti.com/lit/ds/symlink/lp5907.pdf" H 11800 4000 50  0001 C CNN
F 4 "LP5907QMFX-3.3Q1" H 11800 3500 50  0001 C CNN "MPN"
	1    11800 3500
	1    0    0    -1  
$EndComp
$Comp
L Device:C C8
U 1 1 6164F946
P 11200 3550
F 0 "C8" H 11315 3596 50  0000 L CNN
F 1 "1u" H 11315 3505 50  0000 L CNN
F 2 "Capacitor_SMD:C_0805_2012Metric_Pad1.18x1.45mm_HandSolder" H 11238 3400 50  0001 C CNN
F 3 "~" H 11200 3550 50  0001 C CNN
	1    11200 3550
	1    0    0    -1  
$EndComp
$Comp
L Device:C C9
U 1 1 616501C6
P 12200 3550
F 0 "C9" H 12315 3596 50  0000 L CNN
F 1 "1u" H 12315 3505 50  0000 L CNN
F 2 "Capacitor_SMD:C_0805_2012Metric_Pad1.18x1.45mm_HandSolder" H 12238 3400 50  0001 C CNN
F 3 "~" H 12200 3550 50  0001 C CNN
	1    12200 3550
	1    0    0    -1  
$EndComp
Wire Wire Line
	10900 3400 11200 3400
Connection ~ 11200 3400
Wire Wire Line
	11200 3400 11450 3400
Wire Wire Line
	12100 3400 12200 3400
$Comp
L power:GND #PWR029
U 1 1 61688DDF
P 12200 3750
F 0 "#PWR029" H 12200 3500 50  0001 C CNN
F 1 "GND" H 12205 3577 50  0000 C CNN
F 2 "" H 12200 3750 50  0001 C CNN
F 3 "" H 12200 3750 50  0001 C CNN
	1    12200 3750
	1    0    0    -1  
$EndComp
$Comp
L power:GND #PWR030
U 1 1 6168944A
P 11800 3850
F 0 "#PWR030" H 11800 3600 50  0001 C CNN
F 1 "GND" H 11805 3677 50  0000 C CNN
F 2 "" H 11800 3850 50  0001 C CNN
F 3 "" H 11800 3850 50  0001 C CNN
	1    11800 3850
	1    0    0    -1  
$EndComp
$Comp
L power:GND #PWR028
U 1 1 6169B340
P 11200 3750
F 0 "#PWR028" H 11200 3500 50  0001 C CNN
F 1 "GND" H 11205 3577 50  0000 C CNN
F 2 "" H 11200 3750 50  0001 C CNN
F 3 "" H 11200 3750 50  0001 C CNN
	1    11200 3750
	1    0    0    -1  
$EndComp
$Comp
L power:GND #PWR031
U 1 1 616AD248
P 10600 4050
F 0 "#PWR031" H 10600 3800 50  0001 C CNN
F 1 "GND" H 10605 3877 50  0000 C CNN
F 2 "" H 10600 4050 50  0001 C CNN
F 3 "" H 10600 4050 50  0001 C CNN
	1    10600 4050
	1    0    0    -1  
$EndComp
Wire Wire Line
	10600 4050 10600 4000
Wire Wire Line
	11200 3750 11200 3700
Wire Wire Line
	11800 3800 11800 3850
Wire Wire Line
	12200 3750 12200 3700
Text GLabel 12400 3400 2    50   Input ~ 0
3.3V
Wire Wire Line
	12200 3400 12350 3400
Connection ~ 12200 3400
Wire Wire Line
	11500 3500 11450 3500
Wire Wire Line
	11450 3500 11450 3400
Connection ~ 11450 3400
Wire Wire Line
	11450 3400 11500 3400
$Comp
L Connector:Conn_01x01_Male J1
U 1 1 61756EDB
P 12650 3250
F 0 "J1" H 12622 3228 50  0000 R CNN
F 1 "Conn_01x01_Male" H 12622 3273 50  0001 R CNN
F 2 "Connector_PinHeader_2.54mm:PinHeader_1x01_P2.54mm_Vertical" H 12650 3250 50  0001 C CNN
F 3 "~" H 12650 3250 50  0001 C CNN
	1    12650 3250
	-1   0    0    1   
$EndComp
Wire Wire Line
	12450 3250 12350 3250
Wire Wire Line
	12350 3250 12350 3400
Connection ~ 12350 3400
Wire Wire Line
	12350 3400 12400 3400
$Comp
L Connector:Conn_01x01_Male J4
U 1 1 6176B975
P 12650 3700
F 0 "J4" H 12622 3678 50  0000 R CNN
F 1 "Conn_01x01_Male" H 12622 3723 50  0001 R CNN
F 2 "Connector_PinHeader_2.54mm:PinHeader_1x01_P2.54mm_Vertical" H 12650 3700 50  0001 C CNN
F 3 "~" H 12650 3700 50  0001 C CNN
	1    12650 3700
	-1   0    0    1   
$EndComp
Wire Wire Line
	12450 3700 12200 3700
Connection ~ 12200 3700
Wire Notes Line
	10350 3050 12800 3050
Wire Notes Line
	12800 4400 10350 4400
Wire Notes Line
	12800 3050 12800 4400
Wire Notes Line
	10350 3050 10350 4400
Text Notes 10400 4350 0    50   ~ 0
Voltage regulator
Wire Wire Line
	10500 4000 10600 4000
Connection ~ 10600 4000
Wire Wire Line
	10900 4000 10600 4000
Wire Wire Line
	10900 3800 10900 4000
$Comp
L Device:R R52
U 1 1 6193C37E
P 4800 5450
F 0 "R52" H 4870 5496 50  0000 L CNN
F 1 "0" H 4870 5405 50  0000 L CNN
F 2 "Resistor_SMD:R_0603_1608Metric_Pad0.98x0.95mm_HandSolder" V 4730 5450 50  0001 C CNN
F 3 "~" H 4800 5450 50  0001 C CNN
	1    4800 5450
	1    0    0    -1  
$EndComp
$Comp
L Device:R R51
U 1 1 6194F8A4
P 4800 4950
F 0 "R51" H 4870 4996 50  0000 L CNN
F 1 "0" H 4870 4905 50  0000 L CNN
F 2 "Resistor_SMD:R_0603_1608Metric_Pad0.98x0.95mm_HandSolder" V 4730 4950 50  0001 C CNN
F 3 "~" H 4800 4950 50  0001 C CNN
	1    4800 4950
	1    0    0    -1  
$EndComp
Wire Wire Line
	4800 4800 4800 4600
Connection ~ 4800 4600
Wire Wire Line
	4800 5100 4800 5200
Connection ~ 4800 5200
Wire Wire Line
	4800 5200 4800 5300
Wire Wire Line
	4800 5600 4800 6100
Connection ~ 4800 6100
Text GLabel 11150 3300 0    50   Input ~ 0
5V
Wire Wire Line
	11150 3300 11200 3300
Wire Wire Line
	11200 3300 11200 3400
Text GLabel 7750 5300 0    50   Input ~ 0
3.3V
Text Notes 4250 650  0    50   ~ 0
CVCC - 0.3mV, 25-35uA
Wire Wire Line
	11050 2250 11350 2250
Text Notes 2150 4650 0    50   ~ 0
0.9V
Text Notes 1950 3900 0    50   ~ 0
1.1V max
Text Notes 2000 5300 0    50   ~ 0
1.1V max
Text GLabel 7180 1250 0    50   Input ~ 0
3V_REF
Wire Wire Line
	7180 1250 7250 1250
$Comp
L Device:C C10
U 1 1 608CD696
P 650 1300
F 0 "C10" H 650 1400 50  0000 L CNN
F 1 "100n" H 650 1200 50  0000 L CNN
F 2 "Capacitor_SMD:C_0603_1608Metric_Pad1.08x0.95mm_HandSolder" H 688 1150 50  0001 C CNN
F 3 "~" H 650 1300 50  0001 C CNN
	1    650  1300
	1    0    0    -1  
$EndComp
$Comp
L Device:C C11
U 1 1 608CE339
P 1600 1350
F 0 "C11" H 1715 1396 50  0000 L CNN
F 1 "100n" H 1715 1305 50  0000 L CNN
F 2 "Capacitor_SMD:C_0603_1608Metric_Pad1.08x0.95mm_HandSolder" H 1638 1200 50  0001 C CNN
F 3 "~" H 1600 1350 50  0001 C CNN
	1    1600 1350
	1    0    0    -1  
$EndComp
$Comp
L Device:C C13
U 1 1 608E25A8
P 950 4650
F 0 "C13" H 1050 4750 50  0000 L CNN
F 1 "100n" H 1050 4550 50  0000 L CNN
F 2 "Capacitor_SMD:C_0603_1608Metric_Pad1.08x0.95mm_HandSolder" H 988 4500 50  0001 C CNN
F 3 "~" H 950 4650 50  0001 C CNN
	1    950  4650
	1    0    0    -1  
$EndComp
$Comp
L Device:C C14
U 1 1 608F6B30
P 1300 4650
F 0 "C14" H 1350 4750 50  0000 L CNN
F 1 "100n" H 1350 4550 50  0000 L CNN
F 2 "Capacitor_SMD:C_0603_1608Metric_Pad1.08x0.95mm_HandSolder" H 1338 4500 50  0001 C CNN
F 3 "~" H 1300 4650 50  0001 C CNN
	1    1300 4650
	1    0    0    -1  
$EndComp
$Comp
L Device:C C12
U 1 1 6090B1A0
P 6100 3950
F 0 "C12" H 6215 3996 50  0000 L CNN
F 1 "100n" H 6215 3905 50  0000 L CNN
F 2 "Capacitor_SMD:C_0603_1608Metric_Pad1.08x0.95mm_HandSolder" H 6138 3800 50  0001 C CNN
F 3 "~" H 6100 3950 50  0001 C CNN
	1    6100 3950
	1    0    0    -1  
$EndComp
Connection ~ 5700 3650
Connection ~ 5700 4200
Wire Wire Line
	950  4500 950  4350
Connection ~ 1100 1000
Wire Wire Line
	1100 1000 1100 1050
Connection ~ 1100 1600
Wire Wire Line
	1600 1200 1600 1000
Wire Wire Line
	1600 1000 1400 1000
Connection ~ 1400 1000
Wire Wire Line
	1400 1000 1400 1050
Wire Wire Line
	1600 1500 1600 1600
Wire Wire Line
	1600 1600 1400 1600
Connection ~ 1400 1600
Wire Wire Line
	2350 3700 2350 4650
Wire Wire Line
	2150 4650 2350 4650
Connection ~ 2350 4650
Wire Wire Line
	2350 4650 2350 5100
Wire Wire Line
	800  4350 950  4350
Wire Wire Line
	800  4900 950  4900
Connection ~ 950  4350
Wire Wire Line
	950  4800 950  4900
Connection ~ 950  4900
Connection ~ 1750 4900
Connection ~ 1750 4350
Wire Wire Line
	1750 4350 2000 4350
Wire Wire Line
	950  4350 1300 4350
Wire Wire Line
	1300 4500 1300 4350
Connection ~ 1300 4350
Wire Wire Line
	1300 4350 1750 4350
Wire Wire Line
	950  4900 1300 4900
Wire Wire Line
	1300 4800 1300 4900
Connection ~ 1300 4900
Wire Wire Line
	1300 4900 1750 4900
Wire Wire Line
	650  1150 650  1000
Wire Wire Line
	650  1000 1100 1000
Wire Wire Line
	650  1450 650  1600
Wire Wire Line
	650  1600 1100 1600
Wire Wire Line
	6100 3650 6100 3800
Wire Wire Line
	5700 3650 6100 3650
Wire Wire Line
	6100 4100 6100 4200
Wire Wire Line
	5700 4200 6100 4200
$EndSCHEMATC
