(module LOGO (layer F.Cu)
  (at 0 0)
 (fp_text reference "G***" (at 0 0) (layer F.SilkS) hide
  (effects (font (thickness 0.3)))
  )
  (fp_text value "LOGO" (at 0.75 0) (layer F.SilkS) hide
  (effects (font (thickness 0.3)))
  )
  (fp_poly (pts (xy -0.777699 -1.143000) (xy 2.714112 -1.143000) (xy 2.766756 -1.076075) (xy 2.794123 -1.032270) (xy 2.810241 -0.977689) (xy 2.817769 -0.898385) (xy 2.819400 -0.799785) (xy 2.821378 -0.686845)
     (xy 2.832690 -0.609398) (xy 2.861394 -0.560718) (xy 2.915554 -0.534081) (xy 3.003231 -0.522761) (xy 3.132486 -0.520032) (xy 3.154829 -0.519951) (xy 3.269887 -0.520203) (xy 3.344648 -0.523364)
     (xy 3.389611 -0.531797) (xy 3.415276 -0.547869) (xy 3.432141 -0.573943) (xy 3.436760 -0.583451) (xy 3.480286 -0.641321) (xy 3.524362 -0.672774) (xy 3.562033 -0.699774) (xy 3.578552 -0.747487)
     (xy 3.581400 -0.806124) (xy 3.587363 -0.880360) (xy 3.606838 -0.912052) (xy 3.618039 -0.914400) (xy 3.645810 -0.892102) (xy 3.661034 -0.823417) (xy 3.662489 -0.806450) (xy 3.670586 -0.738181)
     (xy 3.689635 -0.705420) (xy 3.731549 -0.692885) (xy 3.752850 -0.690541) (xy 3.803317 -0.688060) (xy 3.827390 -0.702042) (xy 3.834840 -0.745269) (xy 3.835400 -0.798491) (xy 3.838628 -0.870532)
     (xy 3.852075 -0.904852) (xy 3.881381 -0.914323) (xy 3.886200 -0.914400) (xy 3.917945 -0.906922) (xy 3.932957 -0.875868) (xy 3.936980 -0.808312) (xy 3.937000 -0.800100) (xy 3.938897 -0.729870)
     (xy 3.951759 -0.696613) (xy 3.986339 -0.686506) (xy 4.025900 -0.685800) (xy 4.080524 -0.688241) (xy 4.106390 -0.704777) (xy 4.114251 -0.749237) (xy 4.114800 -0.800100) (xy 4.118123 -0.871529)
     (xy 4.131925 -0.905305) (xy 4.161950 -0.914357) (xy 4.165600 -0.914400) (xy 4.197345 -0.906922) (xy 4.212357 -0.875868) (xy 4.216380 -0.808312) (xy 4.216400 -0.800100) (xy 4.218608 -0.729816)
     (xy 4.231362 -0.696526) (xy 4.263852 -0.686447) (xy 4.292600 -0.685800) (xy 4.339456 -0.689114) (xy 4.361649 -0.708245) (xy 4.368369 -0.756980) (xy 4.368800 -0.800100) (xy 4.372123 -0.871529)
     (xy 4.385925 -0.905305) (xy 4.415950 -0.914357) (xy 4.419600 -0.914400) (xy 4.451345 -0.906922) (xy 4.466357 -0.875868) (xy 4.470380 -0.808312) (xy 4.470400 -0.800100) (xy 4.472608 -0.729816)
     (xy 4.485362 -0.696526) (xy 4.517852 -0.686447) (xy 4.546600 -0.685800) (xy 4.593456 -0.689114) (xy 4.615649 -0.708245) (xy 4.622369 -0.756980) (xy 4.622800 -0.800100) (xy 4.626123 -0.871529)
     (xy 4.639925 -0.905305) (xy 4.669950 -0.914357) (xy 4.673600 -0.914400) (xy 4.705968 -0.906502) (xy 4.720860 -0.874067) (xy 4.724400 -0.805669) (xy 4.728522 -0.734779) (xy 4.747553 -0.696200)
     (xy 4.791487 -0.671679) (xy 4.799453 -0.668608) (xy 4.867184 -0.621275) (xy 4.891107 -0.574140) (xy 4.911932 -0.527804) (xy 4.954171 -0.509936) (xy 4.993853 -0.508000) (xy 5.053962 -0.501913)
     (xy 5.077627 -0.478360) (xy 5.080000 -0.457200) (xy 5.070055 -0.422188) (xy 5.031233 -0.408061) (xy 4.991100 -0.406400) (xy 4.931371 -0.402153) (xy 4.906873 -0.380607) (xy 4.902200 -0.330200)
     (xy 4.907155 -0.279005) (xy 4.932292 -0.258006) (xy 4.991100 -0.254000) (xy 5.052371 -0.248318) (xy 5.077094 -0.226134) (xy 5.080000 -0.203200) (xy 5.070055 -0.168188) (xy 5.031233 -0.154061)
     (xy 4.991100 -0.152400) (xy 4.931371 -0.148153) (xy 4.906873 -0.126607) (xy 4.902200 -0.076200) (xy 4.907155 -0.025005) (xy 4.932292 -0.004006) (xy 4.991100 0.000000) (xy 5.052371 0.005682)
     (xy 5.077094 0.027866) (xy 5.080000 0.050800) (xy 5.070055 0.085812) (xy 5.031233 0.099939) (xy 4.991100 0.101600) (xy 4.931516 0.105531) (xy 4.907080 0.127715) (xy 4.902211 0.183733)
     (xy 4.902200 0.190500) (xy 4.906131 0.250083) (xy 4.928315 0.274519) (xy 4.984333 0.279388) (xy 4.991100 0.279400) (xy 5.056851 0.287661) (xy 5.079839 0.314030) (xy 5.080000 0.317500)
     (xy 5.060722 0.345679) (xy 4.999196 0.355531) (xy 4.991100 0.355600) (xy 4.931516 0.359531) (xy 4.907080 0.381715) (xy 4.902211 0.437733) (xy 4.902200 0.444500) (xy 4.906131 0.504083)
     (xy 4.928315 0.528519) (xy 4.984333 0.533388) (xy 4.991100 0.533400) (xy 5.052371 0.539082) (xy 5.077094 0.561266) (xy 5.080000 0.584200) (xy 5.069185 0.620185) (xy 5.027829 0.633905)
     (xy 4.997123 0.635000) (xy 4.929134 0.646583) (xy 4.891468 0.687054) (xy 4.889173 0.692037) (xy 4.848028 0.744819) (xy 4.794250 0.782323) (xy 4.747318 0.813473) (xy 4.727630 0.859361)
     (xy 4.724400 0.915785) (xy 4.720013 0.981701) (xy 4.702342 1.010585) (xy 4.673600 1.016000) (xy 4.640364 1.007479) (xy 4.625676 0.973043) (xy 4.622800 0.914400) (xy 4.619790 0.849253)
     (xy 4.603484 0.820292) (xy 4.562962 0.812960) (xy 4.546600 0.812800) (xy 4.497739 0.816812) (xy 4.476019 0.838553) (xy 4.470520 0.892583) (xy 4.470400 0.914400) (xy 4.466139 0.980870)
     (xy 4.448921 1.010247) (xy 4.419600 1.016000) (xy 4.386364 1.007479) (xy 4.371676 0.973043) (xy 4.368800 0.914400) (xy 4.365790 0.849253) (xy 4.349484 0.820292) (xy 4.308962 0.812960)
     (xy 4.292600 0.812800) (xy 4.243739 0.816812) (xy 4.222019 0.838553) (xy 4.216520 0.892583) (xy 4.216400 0.914400) (xy 4.212139 0.980870) (xy 4.194921 1.010247) (xy 4.165600 1.016000)
     (xy 4.132364 1.007479) (xy 4.117676 0.973043) (xy 4.114800 0.914400) (xy 4.112108 0.849349) (xy 4.095491 0.820440) (xy 4.052132 0.813027) (xy 4.025900 0.812800) (xy 3.968980 0.815875)
     (xy 3.943685 0.834867) (xy 3.937198 0.884420) (xy 3.937000 0.914400) (xy 3.930708 0.985045) (xy 3.909853 1.014156) (xy 3.898900 1.016000) (xy 3.872407 0.999223) (xy 3.861491 0.943609)
     (xy 3.860800 0.914400) (xy 3.858108 0.849349) (xy 3.841491 0.820440) (xy 3.798132 0.813027) (xy 3.771900 0.812800) (xy 3.714980 0.815875) (xy 3.689685 0.834867) (xy 3.683198 0.884420)
     (xy 3.683000 0.914400) (xy 3.678739 0.980870) (xy 3.661521 1.010247) (xy 3.632200 1.016000) (xy 3.598786 1.007346) (xy 3.584144 0.972485) (xy 3.581400 0.915785) (xy 3.575154 0.845280)
     (xy 3.549516 0.804695) (xy 3.512624 0.782435) (xy 3.457409 0.737704) (xy 3.428979 0.685800) (xy 3.420178 0.657256) (xy 3.403385 0.638539) (xy 3.368942 0.627179) (xy 3.307187 0.620706)
     (xy 3.208461 0.616649) (xy 3.152214 0.615032) (xy 3.007549 0.614297) (xy 2.908351 0.621226) (xy 2.856927 0.635647) (xy 2.854858 0.637192) (xy 2.835071 0.673614) (xy 2.823577 0.746899)
     (xy 2.819445 0.863437) (xy 2.819400 0.880564) (xy 2.817975 0.988101) (xy 2.811676 1.058348) (xy 2.797460 1.104780) (xy 2.772286 1.140875) (xy 2.757054 1.156854) (xy 2.694709 1.219200)
     (xy -0.008121 1.219200) (xy -0.437045 1.219189) (xy -0.818084 1.219121) (xy -1.154151 1.218939) (xy -1.448159 1.218588) (xy -1.703022 1.218014) (xy -1.921655 1.217160) (xy -2.106971 1.215971)
     (xy -2.261885 1.214392) (xy -2.389309 1.212368) (xy -2.492158 1.209842) (xy -2.573346 1.206760) (xy -2.635786 1.203066) (xy -2.682393 1.198705) (xy -2.716081 1.193622) (xy -2.739762 1.187761)
     (xy -2.756352 1.181066) (xy -2.768763 1.173483) (xy -2.777875 1.166556) (xy -2.811568 1.136169) (xy -2.831556 1.101693) (xy -2.841380 1.049693) (xy -2.844579 0.966735) (xy -2.844800 0.912556)
     (xy -2.844800 0.711200) (xy -3.111500 0.711200) (xy -3.222194 0.711526) (xy -3.308205 0.708724) (xy -3.372637 0.697121) (xy -3.418594 0.671045) (xy -3.449180 0.624825) (xy -3.467498 0.552788)
     (xy -3.476651 0.449262) (xy -3.479744 0.308576) (xy -3.479879 0.125056) (xy -3.479800 0.038100) (xy -3.479556 -0.147349) (xy -3.478455 -0.288748) (xy -3.475947 -0.392846) (xy -3.473582 -0.431800)
     (xy -3.276600 -0.431800) (xy -3.276600 0.533400) (xy -3.100234 0.533400) (xy -3.086100 -0.165100) (xy -2.908300 0.520700) (xy -2.814642 0.528488) (xy -2.778569 0.531915) (xy -2.751602 0.530796)
     (xy -2.730490 0.518437) (xy -2.711987 0.488143) (xy -2.692845 0.433218) (xy -2.669816 0.346968) (xy -2.639651 0.222698) (xy -2.613703 0.114300) (xy -2.552700 -0.139700) (xy -2.527300 0.520700)
     (xy -2.349500 0.520700) (xy -2.342586 0.043223) (xy -2.335671 -0.434254) (xy -2.649775 -0.419100) (xy -2.730858 -0.114300) (xy -2.762038 0.005009) (xy -2.784892 0.087224) (xy -2.802940 0.130582)
     (xy -2.819701 0.133318) (xy -2.838695 0.093669) (xy -2.863442 0.009871) (xy -2.897462 -0.119841) (xy -2.920914 -0.209550) (xy -2.979495 -0.431801) (xy -3.128048 -0.431800) (xy -3.276600 -0.431800)
     (xy -3.473582 -0.431800) (xy -3.471480 -0.466393) (xy -3.464505 -0.516138) (xy -3.454469 -0.548831) (xy -3.440822 -0.571220) (xy -3.429000 -0.584200) (xy -3.409787 -0.600663) (xy -3.384931 -0.613134)
     (xy -3.347684 -0.622164) (xy -3.291296 -0.628305) (xy -3.209018 -0.632106) (xy -3.094100 -0.634120) (xy -2.939794 -0.634897) (xy -2.806700 -0.635000) (xy -2.621252 -0.634756) (xy -2.479853 -0.633655)
     (xy -2.375755 -0.631147) (xy -2.302208 -0.626680) (xy -2.252463 -0.619705) (xy -2.219770 -0.609669) (xy -2.197381 -0.596022) (xy -2.184401 -0.584200) (xy -2.167938 -0.564987) (xy -2.155467 -0.540131)
     (xy -2.146437 -0.502884) (xy -2.140296 -0.446496) (xy -2.136495 -0.364218) (xy -2.134481 -0.249300) (xy -2.133704 -0.094994) (xy -2.133600 0.038100) (xy -2.133422 0.240401) (xy -2.134955 0.397593)
     (xy -2.141304 0.515349) (xy -2.155572 0.599339) (xy -2.180862 0.655237) (xy -2.220278 0.688715) (xy -2.276925 0.705443) (xy -2.353904 0.711096) (xy -2.454320 0.711343) (xy -2.501900 0.711200)
     (xy -2.768600 0.711200) (xy -2.768600 0.865269) (xy -2.764377 0.956649) (xy -2.753458 1.033001) (xy -2.742307 1.068469) (xy -2.737089 1.076291) (xy -2.728375 1.083235) (xy -2.713288 1.089354)
     (xy -2.688947 1.094700) (xy -2.652475 1.099326) (xy -2.600992 1.103283) (xy -2.531621 1.106624) (xy -2.441482 1.109400) (xy -2.327697 1.111664) (xy -2.187387 1.113469) (xy -2.017673 1.114865)
     (xy -1.815677 1.115906) (xy -1.578520 1.116643) (xy -1.303324 1.117128) (xy -0.987209 1.117414) (xy -0.627297 1.117553) (xy -0.220709 1.117597) (xy -0.029587 1.117599) (xy 0.421965 1.117467)
     (xy 0.824940 1.117053) (xy 1.181564 1.116333) (xy 1.494058 1.115281) (xy 1.764648 1.113874) (xy 1.995556 1.112085) (xy 2.189006 1.109889) (xy 2.347221 1.107263) (xy 2.472426 1.104181)
     (xy 2.566843 1.100617) (xy 2.632697 1.096548) (xy 2.672210 1.091948) (xy 2.687320 1.087119) (xy 2.703910 1.044745) (xy 2.714588 0.963380) (xy 2.717800 0.869958) (xy 2.728529 0.714281)
     (xy 2.760536 0.603250) (xy 2.813552 0.537569) (xy 2.851611 0.521019) (xy 2.900755 0.514768) (xy 2.986499 0.508693) (xy 3.094649 0.503679) (xy 3.162300 0.501601) (xy 3.277557 0.498313)
     (xy 3.351299 0.493652) (xy 3.392796 0.485070) (xy 3.411317 0.470021) (xy 3.416133 0.445956) (xy 3.416300 0.431800) (xy 3.411619 0.394784) (xy 3.389398 0.373148) (xy 3.337366 0.359862)
     (xy 3.276600 0.351761) (xy 3.158852 0.341262) (xy 3.028630 0.335163) (xy 2.897930 0.333378) (xy 2.778747 0.335821) (xy 2.683078 0.342406) (xy 2.622919 0.353048) (xy 2.614530 0.356493)
     (xy 2.590265 0.375742) (xy 2.575503 0.409042) (xy 2.567998 0.467505) (xy 2.565505 0.562249) (xy 2.565400 0.599747) (xy 2.564312 0.706668) (xy 2.558702 0.776601) (xy 2.545051 0.823348)
     (xy 2.519840 0.860711) (xy 2.491153 0.890953) (xy 2.416907 0.965200) (xy 1.362048 0.965200) (xy 1.058082 0.964568) (xy 0.803832 0.962654) (xy 0.598235 0.959432) (xy 0.440221 0.954874)
     (xy 0.328726 0.948953) (xy 0.262681 0.941643) (xy 0.245296 0.936999) (xy 0.181911 0.884823) (xy 0.137954 0.806648) (xy 0.126999 0.748104) (xy 0.116730 0.729384) (xy 0.080192 0.717997)
     (xy 0.008794 0.712446) (xy -0.084964 0.711200) (xy -0.181087 0.710861) (xy -0.253781 0.705700) (xy -0.306315 0.689496) (xy -0.341959 0.656028) (xy -0.363982 0.599076) (xy -0.375655 0.512420)
     (xy -0.380245 0.389839) (xy -0.381024 0.225114) (xy -0.381000 0.147986) (xy -0.380573 -0.019393) (xy -0.380490 -0.025400) (xy 0.101600 -0.025400) (xy 0.101600 0.508000) (xy 0.254000 0.508000)
     (xy 0.254000 -0.025400) (xy 0.101600 -0.025400) (xy -0.380490 -0.025400) (xy -0.378842 -0.143364) (xy -0.377928 -0.165100) (xy 0.101600 -0.165100) (xy 0.109801 -0.119719) (xy 0.144663 -0.103117)
     (xy 0.177800 -0.101600) (xy 0.232258 -0.108435) (xy 0.252180 -0.137487) (xy 0.254000 -0.165100) (xy 0.245798 -0.210482) (xy 0.210936 -0.227084) (xy 0.177800 -0.228600) (xy 0.123341 -0.221766)
     (xy 0.103419 -0.192714) (xy 0.101600 -0.165100) (xy -0.377928 -0.165100) (xy -0.375140 -0.231312) (xy -0.368796 -0.290625) (xy -0.359141 -0.328689) (xy -0.345504 -0.352893) (xy -0.334550 -0.364364)
     (xy -0.311232 -0.379598) (xy -0.275023 -0.390732) (xy -0.218570 -0.398372) (xy -0.134525 -0.403124) (xy -0.015534 -0.405594) (xy 0.145753 -0.406388) (xy 0.175119 -0.406400) (xy 0.340015 -0.404958)
     (xy 0.481495 -0.400886) (xy 0.592091 -0.394568) (xy 0.664335 -0.386388) (xy 0.687469 -0.380107) (xy 0.704475 -0.368012) (xy 0.717040 -0.347868) (xy 0.725831 -0.312655) (xy 0.731515 -0.255355)
     (xy 0.734759 -0.168948) (xy 0.736231 -0.046417) (xy 0.736598 0.119258) (xy 0.736600 0.136656) (xy 0.736490 0.321624) (xy 0.734015 0.461954) (xy 0.725955 0.563803) (xy 0.709091 0.633326)
     (xy 0.680205 0.676679) (xy 0.636078 0.700018) (xy 0.573489 0.709498) (xy 0.489221 0.711276) (xy 0.436149 0.711200) (xy 0.333006 0.712433) (xy 0.270721 0.717590) (xy 0.239381 0.728852)
     (xy 0.229074 0.748405) (xy 0.228600 0.756920) (xy 0.229756 0.782425) (xy 0.236170 0.803503) (xy 0.252264 0.820576) (xy 0.282455 0.834065) (xy 0.331165 0.844393) (xy 0.402812 0.851981)
     (xy 0.501817 0.857252) (xy 0.632599 0.860626) (xy 0.799578 0.862527) (xy 1.007174 0.863376) (xy 1.259807 0.863594) (xy 1.346200 0.863600) (xy 1.625454 0.863199) (xy 1.857208 0.861937)
     (xy 2.044755 0.859721) (xy 2.191389 0.856458) (xy 2.300403 0.852056) (xy 2.375092 0.846423) (xy 2.418749 0.839466) (xy 2.433320 0.833119) (xy 2.449806 0.790188) (xy 2.460332 0.705381)
     (xy 2.463800 0.594633) (xy 2.464801 0.485825) (xy 2.472104 0.404289) (xy 2.492156 0.345839) (xy 2.531405 0.306289) (xy 2.596300 0.281455) (xy 2.693287 0.267149) (xy 2.828816 0.259186)
     (xy 2.988536 0.254000) (xy 3.416300 0.241300) (xy 3.416300 0.088900) (xy 2.298700 0.088900) (xy 2.291401 0.354647) (xy 2.285638 0.487182) (xy 2.276018 0.577869) (xy 2.261158 0.635598)
     (xy 2.243015 0.665797) (xy 2.225634 0.680532) (xy 2.199300 0.691712) (xy 2.157463 0.699820) (xy 2.093574 0.705337) (xy 2.001083 0.708744) (xy 1.873440 0.710524) (xy 1.704096 0.711159)
     (xy 1.625600 0.711200) (xy 1.438566 0.710899) (xy 1.295753 0.709669) (xy 1.190581 0.707015) (xy 1.116473 0.702443) (xy 1.066849 0.695458) (xy 1.035133 0.685568) (xy 1.014744 0.672276)
     (xy 1.007236 0.664749) (xy 0.993585 0.644136) (xy 0.983195 0.612090) (xy 0.975639 0.562169) (xy 0.970489 0.487934) (xy 0.967318 0.382943) (xy 0.965699 0.240758) (xy 0.965204 0.054936)
     (xy 0.965200 0.031190) (xy 0.965337 -0.156152) (xy 0.966141 -0.299213) (xy 0.968198 -0.404513) (xy 0.970971 -0.457200) (xy 1.320800 -0.457200) (xy 1.320800 0.508000) (xy 1.524000 0.508000)
     (xy 1.524000 0.101600) (xy 1.905000 0.101600) (xy 1.905000 -0.050800) (xy 1.524000 -0.050800) (xy 1.524000 -0.279400) (xy 1.981200 -0.279400) (xy 1.981200 -0.457200) (xy 1.320800 -0.457200)
     (xy 0.970971 -0.457200) (xy 0.972097 -0.478571) (xy 0.978424 -0.527907) (xy 0.987766 -0.559040) (xy 1.000712 -0.578489) (xy 1.017847 -0.592774) (xy 1.021651 -0.595460) (xy 1.048592 -0.608922)
     (xy 1.090223 -0.619050) (xy 1.153171 -0.626277) (xy 1.244067 -0.631038) (xy 1.369538 -0.633767) (xy 1.536215 -0.634898) (xy 1.625600 -0.635001) (xy 1.825776 -0.635189) (xy 1.980896 -0.633688)
     (xy 2.096687 -0.627399) (xy 2.178872 -0.613221) (xy 2.233178 -0.588056) (xy 2.265329 -0.548804) (xy 2.281050 -0.492365) (xy 2.286067 -0.415640) (xy 2.286104 -0.315530) (xy 2.286000 -0.277474)
     (xy 2.286000 0.000971) (xy 2.851150 -0.005865) (xy 3.416300 -0.012700) (xy 3.416300 -0.165100) (xy 3.005502 -0.177800) (xy 2.851498 -0.182949) (xy 2.739771 -0.188265) (xy 2.661810 -0.195064)
     (xy 2.609104 -0.204661) (xy 2.573143 -0.218369) (xy 2.545416 -0.237505) (xy 2.530158 -0.251227) (xy 2.499056 -0.284961) (xy 2.479273 -0.323448) (xy 2.467712 -0.379294) (xy 2.461274 -0.465105)
     (xy 2.458355 -0.543327) (xy 2.451100 -0.774700) (xy 0.647700 -0.781299) (xy 0.300405 -0.782504) (xy 0.000395 -0.783349) (xy -0.255842 -0.783766) (xy -0.471822 -0.783682) (xy -0.651057 -0.783030)
     (xy -0.797062 -0.781737) (xy -0.913350 -0.779735) (xy -1.003434 -0.776952) (xy -1.070829 -0.773320) (xy -1.119048 -0.768768) (xy -1.151606 -0.763225) (xy -1.172015 -0.756622) (xy -1.183789 -0.748889)
     (xy -1.187450 -0.744694) (xy -1.215791 -0.699319) (xy -1.218463 -0.668351) (xy -1.189812 -0.649128) (xy -1.124187 -0.638992) (xy -1.015932 -0.635282) (xy -0.954315 -0.635000) (xy -0.817849 -0.632542)
     (xy -0.723139 -0.622909) (xy -0.661283 -0.602721) (xy -0.623377 -0.568594) (xy -0.600519 -0.517144) (xy -0.595470 -0.498643) (xy -0.591588 -0.457026) (xy -0.588853 -0.373052) (xy -0.587353 -0.255155)
     (xy -0.587180 -0.111767) (xy -0.588423 0.048679) (xy -0.589082 0.098570) (xy -0.591978 0.278491) (xy -0.595208 0.414380) (xy -0.599442 0.513005) (xy -0.605350 0.581132) (xy -0.613602 0.625529)
     (xy -0.624870 0.652962) (xy -0.639823 0.670200) (xy -0.646205 0.675189) (xy -0.673259 0.687481) (xy -0.720335 0.696790) (xy -0.793399 0.703467) (xy -0.898413 0.707859) (xy -1.041342 0.710315)
     (xy -1.228149 0.711184) (xy -1.262155 0.711200) (xy -1.446736 0.710951) (xy -1.587301 0.709833) (xy -1.690633 0.707288) (xy -1.763515 0.702758) (xy -1.812731 0.695685) (xy -1.845063 0.685510)
     (xy -1.867296 0.671676) (xy -1.879600 0.660400) (xy -1.896063 0.641186) (xy -1.908534 0.616330) (xy -1.917564 0.579083) (xy -1.923705 0.522695) (xy -1.927506 0.440417) (xy -1.929520 0.325499)
     (xy -1.930297 0.171193) (xy -1.930400 0.038100) (xy -1.930579 -0.164202) (xy -1.929046 -0.321394) (xy -1.923094 -0.431800) (xy -1.625600 -0.431800) (xy -1.625600 0.033866) (xy -1.624718 0.182788)
     (xy -1.622266 0.313860) (xy -1.618536 0.418752) (xy -1.613821 0.489132) (xy -1.608667 0.516466) (xy -1.578392 0.522617) (xy -1.507058 0.527770) (xy -1.404405 0.531477) (xy -1.280171 0.533291)
     (xy -1.240367 0.533400) (xy -0.889000 0.533400) (xy -0.889000 0.355600) (xy -1.422400 0.355600) (xy -1.422400 0.101600) (xy -0.939800 0.101600) (xy -0.939800 -0.076200) (xy -1.422400 -0.076200)
     (xy -1.422400 -0.279400) (xy -0.914400 -0.279400) (xy -0.914400 -0.431800) (xy -1.625600 -0.431800) (xy -1.923094 -0.431800) (xy -1.922697 -0.439150) (xy -1.908429 -0.523140) (xy -1.883139 -0.579038)
     (xy -1.843723 -0.612516) (xy -1.787076 -0.629244) (xy -1.710097 -0.634897) (xy -1.609681 -0.635144) (xy -1.562100 -0.635001) (xy -1.295400 -0.635000) (xy -1.295400 -0.709357) (xy -1.271970 -0.790044)
     (xy -1.228475 -0.836357) (xy -1.214782 -0.846472) (xy -1.198859 -0.855201) (xy -1.177089 -0.862646) (xy -1.145852 -0.868908) (xy -1.101531 -0.874091) (xy -1.040508 -0.878295) (xy -0.959165 -0.881625)
     (xy -0.853883 -0.884181) (xy -0.721044 -0.886066) (xy -0.557031 -0.887381) (xy -0.358225 -0.888230) (xy -0.121008 -0.888715) (xy 0.158239 -0.888936) (xy 0.483132 -0.888998) (xy 0.635611 -0.889000)
     (xy 0.994042 -0.889302) (xy 1.305045 -0.889820) (xy 1.571984 -0.889971) (xy 1.798224 -0.889176) (xy 1.987131 -0.886853) (xy 2.142069 -0.882421) (xy 2.266403 -0.875297) (xy 2.363499 -0.864902)
     (xy 2.436721 -0.850653) (xy 2.489435 -0.831970) (xy 2.525005 -0.808271) (xy 2.546797 -0.778975) (xy 2.558175 -0.743500) (xy 2.562505 -0.701266) (xy 2.563151 -0.651690) (xy 2.563479 -0.594192)
     (xy 2.564919 -0.555721) (xy 2.571763 -0.449928) (xy 2.583469 -0.372194) (xy 2.607027 -0.318353) (xy 2.649426 -0.284243) (xy 2.717655 -0.265699) (xy 2.818704 -0.258557) (xy 2.959562 -0.258655)
     (xy 3.060700 -0.260359) (xy 3.416300 -0.266700) (xy 3.416300 -0.419100) (xy 3.131140 -0.431800) (xy 2.981445 -0.440622) (xy 2.874756 -0.456162) (xy 2.803280 -0.485258) (xy 2.789773 -0.500430)
     (xy 3.535200 -0.500430) (xy 3.544867 -0.437953) (xy 3.589038 -0.394883) (xy 3.642677 -0.386125) (xy 3.682268 -0.405513) (xy 3.695457 -0.456936) (xy 3.695700 -0.469900) (xy 3.689395 -0.523881)
     (xy 3.659734 -0.543776) (xy 3.619847 -0.546100) (xy 3.557808 -0.533937) (xy 3.535200 -0.500430) (xy 2.789773 -0.500430) (xy 2.759223 -0.534743) (xy 2.734793 -0.611455) (xy 2.722195 -0.722228)
     (xy 2.717800 -0.794342) (xy 2.705100 -1.028700) (xy -0.759288 -1.035141) (xy -1.287449 -1.036000) (xy -1.766411 -1.036512) (xy -2.197773 -1.036667) (xy -2.583134 -1.036454) (xy -2.924095 -1.035864)
     (xy -3.222255 -1.034887) (xy -3.479214 -1.033513) (xy -3.696570 -1.031730) (xy -3.875924 -1.029530) (xy -4.018876 -1.026902) (xy -4.127024 -1.023836) (xy -4.201968 -1.020322) (xy -4.245308 -1.016349)
     (xy -4.258138 -1.012981) (xy -4.280557 -0.964962) (xy -4.291468 -0.867964) (xy -4.292600 -0.809690) (xy -4.292600 -0.635000) (xy -4.038601 -0.635001) (xy -3.931742 -0.635248) (xy -3.848715 -0.632206)
     (xy -3.786520 -0.620200) (xy -3.742160 -0.593555) (xy -3.712637 -0.546595) (xy -3.694951 -0.473644) (xy -3.686105 -0.369028) (xy -3.683101 -0.227072) (xy -3.682940 -0.042099) (xy -3.683000 0.038100)
     (xy -3.683245 0.223548) (xy -3.684346 0.364947) (xy -3.686854 0.469045) (xy -3.691321 0.542592) (xy -3.698296 0.592337) (xy -3.708332 0.625030) (xy -3.721979 0.647419) (xy -3.733800 0.660400)
     (xy -3.753098 0.676925) (xy -3.778066 0.689426) (xy -3.815488 0.698462) (xy -3.872147 0.704590) (xy -3.954825 0.708368) (xy -4.070307 0.710354) (xy -4.225375 0.711107) (xy -4.351246 0.711200)
     (xy -4.545544 0.710550) (xy -4.695020 0.708369) (xy -4.805639 0.704307) (xy -4.883364 0.698016) (xy -4.934160 0.689148) (xy -4.963991 0.677353) (xy -4.967196 0.675186) (xy -4.983263 0.660363)
     (xy -4.995577 0.638020) (xy -5.004760 0.601578) (xy -5.011430 0.544455) (xy -5.016208 0.460072) (xy -5.019715 0.341848) (xy -5.022570 0.183203) (xy -5.024163 0.070681) (xy -5.026451 -0.113874)
     (xy -5.027346 -0.254617) (xy -5.026342 -0.358529) (xy -5.022969 -0.431800) (xy -4.749800 -0.431800) (xy -4.749800 0.536466) (xy -4.559300 0.520700) (xy -4.551834 0.365632) (xy -4.543738 0.271964)
     (xy -4.526188 0.210331) (xy -4.492546 0.162047) (xy -4.472194 0.141417) (xy -4.400020 0.072270) (xy -4.133886 0.533400) (xy -4.010043 0.533400) (xy -3.938614 0.531256) (xy -3.893867 0.525788)
     (xy -3.886200 0.521769) (xy -3.899274 0.497382) (xy -3.935115 0.438625) (xy -3.988653 0.353621) (xy -4.054816 0.250495) (xy -4.074192 0.220591) (xy -4.262183 -0.068956) (xy -4.080760 -0.250378)
     (xy -3.899338 -0.431800) (xy -4.178300 -0.432110) (xy -4.544248 -0.038100) (xy -4.546600 -0.431800) (xy -4.749800 -0.431800) (xy -5.022969 -0.431800) (xy -5.022932 -0.432590) (xy -5.016608 -0.483781)
     (xy -5.006863 -0.519081) (xy -4.993189 -0.545472) (xy -4.977870 -0.566406) (xy -4.951449 -0.597101) (xy -4.922920 -0.616931) (xy -4.881265 -0.628267) (xy -4.815467 -0.633479) (xy -4.714509 -0.634937)
     (xy -4.659057 -0.635000) (xy -4.394200 -0.635000) (xy -4.394200 -0.826655) (xy -4.392302 -0.928618) (xy -4.384192 -0.994600) (xy -4.366250 -1.039354) (xy -4.334854 -1.077632) (xy -4.331855 -1.080655)
     (xy -4.269510 -1.143001) (xy -0.777699 -1.143000) )(layer F.SilkS) (width  0.010000)
  )
)
