(module Potentiometer_Bourns_3269P_Horizontal (layer F.Cu) (tedit 6087CCFD)
  (descr "Potentiometer, horizontal, Bourns 3269P, https://www.bourns.com/docs/Product-Datasheets/3269.pdf")
  (tags "Potentiometer horizontal Bourns 3269P")
  (attr smd)
  (fp_text reference REF** (at 0 -4.425) (layer F.SilkS)
    (effects (font (size 1 1) (thickness 0.15)))
  )
  (fp_text value Potentiometer_Bourns_3269P_Horizontal (at 0 4.425) (layer F.Fab)
    (effects (font (size 1 1) (thickness 0.15)))
  )
  (fp_line (start 5.1 -3.45) (end -5.1 -3.45) (layer F.CrtYd) (width 0.05))
  (fp_line (start 5.1 3.45) (end 5.1 -3.45) (layer F.CrtYd) (width 0.05))
  (fp_line (start -5.1 3.45) (end 5.1 3.45) (layer F.CrtYd) (width 0.05))
  (fp_line (start -5.1 -3.45) (end -5.1 3.45) (layer F.CrtYd) (width 0.05))
  (fp_line (start -4.865 -1.905) (end -4.106 -1.905) (layer F.SilkS) (width 0.12))
  (fp_line (start -3.346 -2.915) (end -3.346 -0.895) (layer F.SilkS) (width 0.12))
  (fp_line (start -4.865 -2.915) (end -4.865 -0.895) (layer F.SilkS) (width 0.12))
  (fp_line (start -4.865 -0.895) (end -3.346 -0.895) (layer F.SilkS) (width 0.12))
  (fp_line (start -4.865 -2.915) (end -3.346 -2.915) (layer F.SilkS) (width 0.12))
  (fp_line (start 3.245 -1.705) (end 3.245 1.705) (layer F.SilkS) (width 0.12))
  (fp_line (start -3.345 0.835) (end -3.345 3.295) (layer F.SilkS) (width 0.12))
  (fp_line (start -3.345 -3.295) (end -3.345 -0.835) (layer F.SilkS) (width 0.12))
  (fp_line (start -3.345 3.295) (end 1.31 3.295) (layer F.SilkS) (width 0.12))
  (fp_line (start -3.345 -3.295) (end 1.31 -3.295) (layer F.SilkS) (width 0.12))
  (fp_line (start -4.745 -1.905) (end -3.985 -1.905) (layer F.Fab) (width 0.1))
  (fp_line (start -3.225 -2.795) (end -4.745 -2.795) (layer F.Fab) (width 0.1))
  (fp_line (start -3.225 -1.015) (end -3.225 -2.795) (layer F.Fab) (width 0.1))
  (fp_line (start -4.745 -1.015) (end -3.225 -1.015) (layer F.Fab) (width 0.1))
  (fp_line (start -4.745 -2.795) (end -4.745 -1.015) (layer F.Fab) (width 0.1))
  (fp_line (start 3.125 -3.175) (end -3.225 -3.175) (layer F.Fab) (width 0.1))
  (fp_line (start 3.125 3.175) (end 3.125 -3.175) (layer F.Fab) (width 0.1))
  (fp_line (start -3.225 3.175) (end 3.125 3.175) (layer F.Fab) (width 0.1))
  (fp_line (start -3.225 -3.175) (end -3.225 3.175) (layer F.Fab) (width 0.1))
  (fp_text user %R (at -0.05 0) (layer F.Fab)
    (effects (font (size 1 1) (thickness 0.15)))
  )
  (pad 3 smd rect (at 3.2 2.54) (size 3.3 1.19) (layers F.Cu F.Paste F.Mask))
  (pad 2 smd rect (at -3.2 0) (size 3.3 1.19) (layers F.Cu F.Paste F.Mask))
  (pad 1 smd rect (at 3.2 -2.54) (size 3.3 1.19) (layers F.Cu F.Paste F.Mask))
  (model ${KISYS3DMOD}/Potentiometer_SMD.3dshapes/Potentiometer_Bourns_3269P_Horizontal.wrl
    (at (xyz 0 0 0))
    (scale (xyz 1 1 1))
    (rotate (xyz 0 0 0))
  )
  (model ${KISYS3DMOD}/Potentiometer_SMD.3dshapes/Potentiometer_Bourns_3314J_Vertical.wrl
    (at (xyz 0 0 0))
    (scale (xyz 1.4 1.4 1))
    (rotate (xyz 0 0 90))
  )
)
